info face="Noto Sans S Chinese Medium" size=-21 bold=0 italic=0 charset="" unicode=1 stretchH=100 smooth=1 aa=1 padding=4,4,4,4 spacing=1,1 outline=0
common lineHeight=30 base=24 scaleW=256 scaleH=256 pages=1 packed=0 alphaChnl=1 redChnl=0 greenChnl=0 blueChnl=0
page id=0 file="ID_num.png"
chars count=12
char id=42   x=193   y=0     width=16    height=16    xoffset=-3    yoffset=3     xadvance=10    page=0  chnl=15
char id=46   x=210   y=0     width=12    height=12    xoffset=-2    yoffset=16    xadvance=6     page=0  chnl=15
char id=48   x=80    y=0     width=18    height=24    xoffset=-3    yoffset=4     xadvance=12    page=0  chnl=15
char id=49   x=175   y=0     width=17    height=24    xoffset=-3    yoffset=4     xadvance=12    page=0  chnl=15
char id=50   x=0     y=0     width=19    height=24    xoffset=-4    yoffset=4     xadvance=12    page=0  chnl=15
char id=51   x=20    y=0     width=19    height=24    xoffset=-4    yoffset=4     xadvance=12    page=0  chnl=15
char id=52   x=40    y=0     width=19    height=24    xoffset=-4    yoffset=4     xadvance=12    page=0  chnl=15
char id=53   x=60    y=0     width=19    height=24    xoffset=-4    yoffset=4     xadvance=12    page=0  chnl=15
char id=54   x=99    y=0     width=18    height=24    xoffset=-3    yoffset=4     xadvance=12    page=0  chnl=15
char id=55   x=118   y=0     width=18    height=24    xoffset=-3    yoffset=4     xadvance=12    page=0  chnl=15
char id=56   x=137   y=0     width=18    height=24    xoffset=-3    yoffset=4     xadvance=12    page=0  chnl=15
char id=57   x=156   y=0     width=18    height=24    xoffset=-3    yoffset=4     xadvance=12    page=0  chnl=15
kernings count=1
kerning first=46  second=42  amount=-3  
