﻿info face="黑体" size=32 bold=0 italic=0 charset="" unicode=1 stretchH=100 smooth=1 aa=1 padding=0,0,0,0 spacing=1,1 outline=0
common lineHeight=33 base=28 scaleW=150 scaleH=80 pages=1 packed=0 alphaChnl=1 redChnl=0 greenChnl=0 blueChnl=0
page id=0 file="ddz_fnt_beilv.png"
chars count=13
char id=42   x=0     y=0     width=19    height=27    xoffset=0     yoffset=0     xadvance=19    page=0  chnl=15
char id=44   x=140   y=0     width=8     height=27    xoffset=0     yoffset=0     xadvance=8     page=0  chnl=15
char id=46   x=74    y=28    width=8     height=27    xoffset=0     yoffset=0     xadvance=8     page=0  chnl=15
char id=48   x=20    y=0     width=19    height=27    xoffset=0     yoffset=0     xadvance=19    page=0  chnl=15
char id=49   x=58    y=28    width=15    height=27    xoffset=0     yoffset=0     xadvance=15    page=0  chnl=15
char id=50   x=40    y=0     width=19    height=27    xoffset=0     yoffset=0     xadvance=19    page=0  chnl=15
char id=51   x=60    y=0     width=19    height=27    xoffset=0     yoffset=0     xadvance=19    page=0  chnl=15
char id=52   x=80    y=0     width=19    height=27    xoffset=0     yoffset=0     xadvance=19    page=0  chnl=15
char id=53   x=20    y=28    width=18    height=27    xoffset=0     yoffset=0     xadvance=18    page=0  chnl=15
char id=54   x=100   y=0     width=19    height=27    xoffset=0     yoffset=0     xadvance=19    page=0  chnl=15
char id=55   x=120   y=0     width=19    height=27    xoffset=0     yoffset=0     xadvance=19    page=0  chnl=15
char id=56   x=0     y=28    width=19    height=27    xoffset=0     yoffset=0     xadvance=19    page=0  chnl=15
char id=57   x=39    y=28    width=18    height=27    xoffset=0     yoffset=0     xadvance=18    page=0  chnl=15
