{
"skeleton": { "hash": "J8Ikc8ghFbh+2b8lqGqXXFS4Two", "spine": "3.6.53", "width": 0, "height": 0, "images": "./images/" },
"bones": [
	{ "name": "root" },
	{ "name": "hongfang_zhenghe", "parent": "root", "color": "ff0000ff" },
	{ "name": "shenti", "parent": "hongfang_zhenghe", "length": 19.01, "rotation": 171.06, "x": 696.11, "y": 122.96 },
	{ "name": "bone2", "parent": "shenti", "length": 11.65, "rotation": -33.12, "x": 19.01 },
	{ "name": "bone3", "parent": "bone2", "length": 10.1, "rotation": 31.22, "x": 11.65 },
	{ "name": "bone4", "parent": "bone3", "length": 13.51, "rotation": 25.31, "x": 10.1 },
	{ "name": "bone5", "parent": "shenti", "length": 18.27, "rotation": -177.69, "x": 0.03, "y": -0.21 },
	{ "name": "bone6", "parent": "bone5", "length": 13.79, "rotation": 12.78, "x": 18.27 },
	{ "name": "bone7", "parent": "bone6", "length": 18.48, "rotation": 12.5, "x": 13.79 },
	{ "name": "chibang2", "parent": "shenti", "length": 60.84, "rotation": -97.47, "x": 15.66, "y": -3.19 },
	{ "name": "bone8", "parent": "chibang2", "length": 61.58, "rotation": -14.85, "x": 61.07, "y": -0.16 },
	{ "name": "chibang1", "parent": "shenti", "length": 32.24, "rotation": -61.9, "x": 3.13, "y": -6.78 },
	{ "name": "bone9", "parent": "chibang1", "length": 40.73, "rotation": -9.7, "x": 32.24 },
	{ "name": "heifang_zhenghe", "parent": "root", "color": "000000ff" },
	{ "name": "shenti2", "parent": "heifang_zhenghe", "length": 19.01, "rotation": 171.06, "x": 693.73, "y": 107.78 },
	{ "name": "bone10", "parent": "shenti2", "length": 11.65, "rotation": -33.12, "x": 19.01 },
	{ "name": "bone11", "parent": "bone10", "length": 10.1, "rotation": 31.22, "x": 11.65 },
	{ "name": "bone12", "parent": "bone11", "length": 13.51, "rotation": 25.31, "x": 10.1 },
	{ "name": "bone13", "parent": "shenti2", "length": 18.27, "rotation": -177.69, "x": 0.03, "y": -0.21 },
	{ "name": "bone14", "parent": "bone13", "length": 13.79, "rotation": 12.78, "x": 18.27 },
	{ "name": "bone15", "parent": "bone14", "length": 18.48, "rotation": 12.5, "x": 13.79 },
	{ "name": "chibang3", "parent": "shenti2", "length": 60.84, "rotation": -97.47, "x": 15.66, "y": -3.19 },
	{ "name": "bone16", "parent": "chibang3", "length": 61.58, "rotation": -14.85, "x": 61.07, "y": -0.16 },
	{ "name": "chibang4", "parent": "shenti2", "length": 32.24, "rotation": -61.9, "x": 3.13, "y": -6.78 },
	{ "name": "bone17", "parent": "chibang4", "length": 40.73, "rotation": -9.7, "x": 32.24 },
	{ "name": "fazhang_glow", "parent": "hongfang_zhenghe", "x": -354.64, "y": -71.53 },
	{ "name": "fazhang_glow2", "parent": "fazhang_glow" },
	{ "name": "fazhang_glow3", "parent": "heifang_zhenghe", "x": 351.79, "y": -69.43 },
	{ "name": "fazhang_glow4", "parent": "fazhang_glow3" },
	{ "name": "shuijin", "parent": "bone4", "x": 13.23, "y": -0.11 },
	{ "name": "shuijin2", "parent": "bone12", "x": 13.23, "y": -0.11 }
],
"slots": [
	{ "name": "root", "bone": "fazhang_glow2" },
	{ "name": "root2", "bone": "fazhang_glow4" },
	{ "name": "hongheidazhan_fzglow_01", "bone": "fazhang_glow", "blend": "additive" },
	{ "name": "hongheidazhan_fzjian_01", "bone": "fazhang_glow3", "blend": "additive" },
	{ "name": "hongheidazhan_wuya_chibang1", "bone": "chibang1" },
	{ "name": "hongheidazhan_wuya_chibang4", "bone": "chibang4" },
	{ "name": "hongheidazhan_shuijing", "bone": "shuijin" },
	{ "name": "hongheidazhan_shuijing2", "bone": "shuijin2" },
	{ "name": "hongheidazhan_wuya", "bone": "shenti" },
	{ "name": "hongheidazhan_wuya2", "bone": "shenti2" },
	{ "name": "hongheidazhan_wuya_chibang2", "bone": "chibang2" },
	{ "name": "hongheidazhan_wuya_chibang3", "bone": "chibang3" },
	{ "name": "feixing_1", "bone": "hongfang_zhenghe", "attachment": "feixing_1" },
	{ "name": "feixing_2", "bone": "heifang_zhenghe", "attachment": "feixing_2" }
],
"path": [
	{
		"name": "feixing_1",
		"order": 0,
		"bones": [ "shenti" ],
		"target": "feixing_1"
	},
	{
		"name": "feixing_2",
		"order": 1,
		"bones": [ "shenti2" ],
		"target": "feixing_2"
	}
],
"skins": {
	"default": {
		"feixing_1": {
			"feixing_1": {
				"type": "path",
				"lengths": [ 557.58, 1061.28, 2261.05 ],
				"vertexCount": 9,
				"vertices": [ 883.21, 20.72, 696.12, 122.96, 575.34, 188.97, 353.71, 210.19, 151.84, 138.06, -79.41, 55.45, -142.64, -58.98, -314.23, -31.26, -493.77, -2.26 ]
			}
		},
		"feixing_2": {
			"feixing_2": {
				"type": "path",
				"lengths": [ 172.47, 346.73, 848.3 ],
				"vertexCount": 9,
				"vertices": [ 894.65, 45.24, 696.12, 122.96, 662.54, 136.11, 587.36, 95.39, 548.44, 47.09, 518.63, 10.09, 461.72, -29.29, 401.65, -41.39, 222.86, -77.42 ]
			}
		},
		"hongheidazhan_fzglow_01": {
			"hongheidazhan_fzglow_01": { "width": 181, "height": 183 },
			"hongheidazhan_fzglow_02": { "width": 181, "height": 183 },
			"hongheidazhan_fzglow_03": { "width": 181, "height": 183 },
			"hongheidazhan_fzglow_04": { "width": 181, "height": 183 },
			"hongheidazhan_fzglow_05": { "width": 181, "height": 183 },
			"hongheidazhan_fzglow_06": { "width": 181, "height": 183 },
			"hongheidazhan_fzglow_07": { "width": 181, "height": 183 },
			"hongheidazhan_fzglow_08": { "width": 181, "height": 183 }
		},
		"hongheidazhan_fzjian_01": {
			"hongheidazhan_fzjian_01": { "width": 158, "height": 189 },
			"hongheidazhan_fzjian_02": { "width": 158, "height": 189 },
			"hongheidazhan_fzjian_03": { "width": 158, "height": 189 },
			"hongheidazhan_fzjian_04": { "width": 158, "height": 189 },
			"hongheidazhan_fzjian_05": { "width": 158, "height": 189 },
			"hongheidazhan_fzjian_06": { "width": 158, "height": 189 },
			"hongheidazhan_fzjian_07": { "width": 158, "height": 189 },
			"hongheidazhan_fzjian_08": { "width": 158, "height": 189 }
		},
		"hongheidazhan_shuijing": {
			"hongheidazhan_shuijing": { "x": 0.49, "y": 1.08, "rotation": 165.53, "width": 21, "height": 17 }
		},
		"hongheidazhan_shuijing2": {
			"hongheidazhan_shuijing": { "x": 0.49, "y": 1.08, "rotation": 165.53, "width": 21, "height": 17 }
		},
		"hongheidazhan_wuya": {
			"hongheidazhan_wuya": {
				"type": "mesh",
				"uvs": [ 0, 0.3107, 0.08382, 0.17824, 0.10816, 0.09747, 0.1741, 0.05224, 0.27694, 0.05063, 0.37272, 0.03447, 0.39536, 0.19935, 0.44011, 0.3092, 0.48261, 0.32364, 0.52568, 0.33828, 0.59106, 0.32767, 0.64134, 0.31951, 0.71592, 0.3292, 0.80306, 0.29205, 0.95221, 0.2242, 0.97734, 0.28397, 0.95849, 0.38089, 1, 0.42613, 0.99382, 0.49559, 0.94201, 0.62643, 0.78029, 0.74597, 0.68687, 0.70236, 0.65274, 0.81295, 0.59502, 1, 0.46941, 1, 0.46784, 0.83805, 0.3336, 0.73305, 0.25138, 0.63053, 0.18073, 0.48676, 0.14447, 0.44721, 0.11557, 0.41568, 0, 0.3656, 0.58912, 0.82158, 0.8653, 0.44183, 0.74491, 0.51689, 0.66607, 0.52746, 0.59026, 0.53265, 0.50005, 0.55976, 0.41348, 0.51357, 0.35079, 0.46128, 0.29227, 0.33739, 0.27119, 0.27364, 0.22354, 0.21049, 0.16271, 0.20411, 0.11163, 0.24656, 0.096, 0.26935 ],
				"triangles": [ 16, 13, 14, 15, 16, 14, 33, 13, 16, 12, 13, 33, 16, 18, 33, 17, 18, 16, 19, 33, 18, 34, 33, 19, 34, 12, 33, 35, 11, 12, 35, 12, 34, 21, 35, 34, 20, 21, 34, 19, 20, 34, 38, 8, 9, 10, 11, 35, 36, 9, 10, 36, 10, 35, 36, 37, 9, 21, 36, 35, 36, 21, 32, 21, 22, 32, 44, 1, 2, 43, 44, 2, 45, 1, 44, 0, 1, 45, 31, 0, 45, 30, 45, 44, 31, 45, 30, 44, 43, 30, 5, 42, 4, 43, 2, 3, 42, 3, 4, 43, 3, 42, 43, 42, 29, 43, 29, 30, 29, 42, 41, 5, 41, 42, 5, 6, 41, 40, 41, 6, 7, 40, 6, 29, 41, 28, 40, 28, 41, 39, 28, 40, 39, 40, 7, 8, 38, 39, 8, 39, 7, 37, 38, 9, 27, 28, 39, 27, 39, 38, 26, 27, 38, 26, 38, 37, 37, 36, 32, 37, 25, 26, 32, 25, 37, 23, 24, 25, 23, 32, 22, 23, 25, 32 ],
				"vertices": [ 1, 5, 15.96, -1.37, 1, 2, 4, 17.6, -2.86, 0.04115, 5, 5.56, -5.79, 0.95885, 2, 4, 15.83, -7.48, 0.29759, 5, 1.98, -9.21, 0.70241, 3, 3, 25.4, -4.66, 0.0088, 4, 9.34, -11.12, 0.77327, 5, -5.44, -9.73, 0.21793, 4, 2, 26.88, -19.58, 0.04328, 3, 17.29, -12.1, 0.37515, 4, -1.45, -13.27, 0.58104, 5, -16.11, -7.06, 5.3E-4, 4, 2, 16.89, -22, 0.14936, 3, 10.24, -19.59, 0.60134, 4, -11.36, -16.02, 0.24646, 6, -15.96, 22.45, 0.00284, 4, 2, 13.16, -13.91, 0.35937, 3, 2.7, -14.84, 0.51132, 4, -15.35, -8.05, 0.08556, 6, -12.57, 14.22, 0.04375, 4, 2, 7.54, -9.01, 0.55416, 3, -4.68, -13.81, 0.1227, 4, -21.13, -3.35, 0.00287, 6, -7.15, 9.1, 0.32026, 3, 2, 2.93, -8.98, 0.21287, 3, -8.56, -16.3, 0.01831, 6, -2.55, 8.88, 0.76881, 4, 2, -1.74, -8.94, 0.00718, 3, -12.49, -18.82, 5.5E-4, 6, 2.12, 8.65, 0.99213, 7, -13.84, 12.01, 1.4E-4, 2, 6, 9, 10.01, 0.9385, 7, -6.82, 11.81, 0.0615, 3, 6, 14.3, 11.05, 0.7121, 7, -1.43, 11.66, 0.28779, 8, -12.34, 14.67, 1.2E-4, 3, 6, 22.28, 11.47, 0.16976, 7, 6.45, 10.3, 0.73978, 8, -4.94, 11.64, 0.09047, 3, 6, 31.32, 14.47, 7.7E-4, 7, 15.93, 11.22, 0.29527, 8, 4.51, 10.49, 0.70396, 1, 8, 20.76, 8.74, 1, 1, 8, 22.32, 4.93, 1, 1, 8, 18.8, 0.8, 1, 1, 8, 22.25, -2.85, 1, 1, 8, 20.47, -6.06, 1, 2, 7, 28.85, -7.66, 6.2E-4, 8, 13.04, -10.73, 0.99938, 4, 2, -31.94, 7.77, 6.0E-5, 6, 31.63, -9.26, 1.2E-4, 7, 10.98, -11.98, 0.78892, 8, -5.34, -11.09, 0.21091, 3, 2, -21.72, 7.08, 0.08053, 6, 21.44, -8.16, 0.33645, 7, 1.29, -8.66, 0.58302, 3, 2, -19, 13.33, 0.33606, 6, 18.48, -14.29, 0.55077, 7, -2.96, -13.99, 0.11318, 3, 2, -14.41, 23.9, 0.60737, 6, 13.46, -24.67, 0.39011, 7, -10.14, -23, 0.00252, 2, 2, -1.14, 25.99, 0.74328, 6, 0.11, -26.22, 0.25672, 2, 2, 0.34, 17.69, 0.83628, 6, -1.03, -17.88, 0.16372, 2, 2, 15.38, 14.53, 0.89656, 3, -10.98, 10.19, 0.10344, 4, 2, 24.89, 10.63, 0.34535, 3, -0.88, 12.12, 0.61448, 4, -4.44, 16.86, 0.04017, 5, -5.93, 21.46, 0, 4, 2, 33.52, 4.42, 0.00364, 3, 9.74, 11.64, 0.4954, 4, 4.4, 10.94, 0.39702, 5, -0.48, 12.33, 0.10393, 3, 3, 14, 12.71, 0.19472, 4, 8.59, 9.65, 0.43705, 5, 2.77, 9.37, 0.36823, 3, 3, 17.39, 13.56, 0.05932, 4, 11.94, 8.62, 0.23228, 5, 5.35, 7.01, 0.7084, 1, 5, 16.67, 1.4, 1, 3, 2, -12.35, 14.83, 0.50688, 6, 11.77, -15.53, 0.47071, 7, -9.78, -13.7, 0.02241, 2, 7, 21.72, 2.77, 0.00273, 8, 8.34, 0.99, 0.99727, 3, 6, 26.49, 2.14, 3.4E-4, 7, 8.49, 0.26, 0.99809, 8, -5.12, 1.41, 0.00158, 2, 6, 18.18, 0.62, 0.51073, 7, 0.05, 0.62, 0.48927, 2, 2, -10.13, -0.03, 0.01116, 6, 10.15, -0.59, 0.98884, 1, 2, -0.82, 2.86, 1, 1, 2, 8.71, 1.93, 1, 1, 2, 15.76, 0.29, 1, 4, 2, 22.94, -5.1, 0.03372, 3, 6.08, -2.13, 0.96289, 4, -5.87, 1.07, 0.00279, 6, -22.69, 5.81, 6.0E-4, 4, 2, 25.68, -8.03, 0.01954, 3, 9.98, -3.08, 0.81424, 4, -3.03, -1.76, 0.16608, 6, -25.32, 8.85, 1.3E-4, 4, 2, 31.23, -10.48, 0.00158, 3, 15.96, -2.1, 0.06142, 4, 2.6, -4.03, 0.93499, 5, -8.5, -0.44, 0.00201, 2, 4, 9.05, -3.13, 0.79823, 5, -2.28, -2.38, 0.20177, 1, 5, 3.56, -1.61, 1, 1, 5, 5.48, -0.88, 1 ],
				"hull": 32,
				"edges": [ 0, 2, 2, 4, 4, 6, 6, 8, 8, 10, 10, 12, 12, 14, 22, 24, 24, 26, 26, 28, 28, 30, 30, 32, 32, 34, 34, 36, 36, 38, 40, 42, 46, 48, 48, 50, 50, 52, 52, 54, 54, 56, 60, 62, 0, 62, 38, 40, 36, 32, 32, 28, 42, 44, 44, 46, 18, 20, 20, 22, 44, 64, 64, 50, 64, 46, 14, 16, 16, 18, 56, 58, 58, 60, 26, 66, 66, 38, 32, 66, 24, 68, 68, 40, 66, 68, 22, 70, 70, 42, 68, 70, 20, 72, 72, 64, 70, 72, 18, 74, 74, 50, 72, 74, 16, 76, 76, 52, 74, 76, 14, 78, 78, 54, 76, 78, 12, 80, 80, 56, 78, 80, 10, 82, 82, 56, 80, 82, 8, 84, 84, 58, 82, 84, 6, 86, 86, 58, 84, 86, 4, 88, 88, 60, 86, 88, 2, 90, 90, 60, 88, 90, 90, 62 ],
				"width": 107,
				"height": 52
			}
		},
		"hongheidazhan_wuya2": {
			"hongheidazhan_wuya": {
				"type": "mesh",
				"uvs": [ 0, 0.3107, 0.08382, 0.17824, 0.10816, 0.09747, 0.1741, 0.05224, 0.27694, 0.05063, 0.37272, 0.03447, 0.39536, 0.19935, 0.44011, 0.3092, 0.48261, 0.32364, 0.52568, 0.33828, 0.59106, 0.32767, 0.64134, 0.31951, 0.71592, 0.3292, 0.80306, 0.29205, 0.95221, 0.2242, 0.97734, 0.28397, 0.95849, 0.38089, 1, 0.42613, 0.99382, 0.49559, 0.94201, 0.62643, 0.78029, 0.74597, 0.68687, 0.70236, 0.65274, 0.81295, 0.59502, 1, 0.46941, 1, 0.46784, 0.83805, 0.3336, 0.73305, 0.25138, 0.63053, 0.18073, 0.48676, 0.14447, 0.44721, 0.11557, 0.41568, 0, 0.3656, 0.58912, 0.82158, 0.8653, 0.44183, 0.74491, 0.51689, 0.66607, 0.52746, 0.59026, 0.53265, 0.50005, 0.55976, 0.41348, 0.51357, 0.35079, 0.46128, 0.29227, 0.33739, 0.27119, 0.27364, 0.22354, 0.21049, 0.16271, 0.20411, 0.11163, 0.24656, 0.096, 0.26935 ],
				"triangles": [ 16, 13, 14, 15, 16, 14, 33, 13, 16, 12, 13, 33, 16, 18, 33, 17, 18, 16, 19, 33, 18, 34, 33, 19, 34, 12, 33, 35, 11, 12, 35, 12, 34, 21, 35, 34, 20, 21, 34, 19, 20, 34, 38, 8, 9, 10, 11, 35, 36, 9, 10, 36, 10, 35, 36, 37, 9, 21, 36, 35, 36, 21, 32, 21, 22, 32, 44, 1, 2, 43, 44, 2, 45, 1, 44, 0, 1, 45, 31, 0, 45, 30, 45, 44, 31, 45, 30, 44, 43, 30, 5, 42, 4, 43, 2, 3, 42, 3, 4, 43, 3, 42, 43, 42, 29, 43, 29, 30, 29, 42, 41, 5, 41, 42, 5, 6, 41, 40, 41, 6, 7, 40, 6, 29, 41, 28, 40, 28, 41, 39, 28, 40, 39, 40, 7, 8, 38, 39, 8, 39, 7, 37, 38, 9, 27, 28, 39, 27, 39, 38, 26, 27, 38, 26, 38, 37, 37, 36, 32, 37, 25, 26, 32, 25, 37, 23, 24, 25, 23, 32, 22, 23, 25, 32 ],
				"vertices": [ 1, 17, 15.96, -1.37, 1, 2, 16, 17.6, -2.86, 0.04115, 17, 5.56, -5.79, 0.95885, 2, 16, 15.83, -7.48, 0.29759, 17, 1.98, -9.21, 0.70241, 3, 15, 25.4, -4.66, 0.0088, 16, 9.34, -11.12, 0.77327, 17, -5.44, -9.73, 0.21793, 4, 14, 26.88, -19.58, 0.04328, 15, 17.29, -12.1, 0.37515, 16, -1.45, -13.27, 0.58104, 17, -16.11, -7.06, 5.3E-4, 4, 14, 16.89, -22, 0.14936, 15, 10.24, -19.59, 0.60134, 16, -11.36, -16.02, 0.24646, 18, -15.96, 22.45, 0.00284, 4, 14, 13.16, -13.91, 0.35937, 15, 2.7, -14.84, 0.51132, 16, -15.35, -8.05, 0.08556, 18, -12.57, 14.22, 0.04375, 4, 14, 7.54, -9.01, 0.55416, 15, -4.68, -13.81, 0.1227, 16, -21.13, -3.35, 0.00287, 18, -7.15, 9.1, 0.32026, 3, 14, 2.93, -8.98, 0.21287, 15, -8.56, -16.3, 0.01831, 18, -2.55, 8.88, 0.76881, 4, 14, -1.74, -8.94, 0.00718, 15, -12.49, -18.82, 5.5E-4, 18, 2.12, 8.65, 0.99213, 19, -13.84, 12.01, 1.4E-4, 2, 18, 9, 10.01, 0.9385, 19, -6.82, 11.81, 0.0615, 3, 18, 14.3, 11.05, 0.7121, 19, -1.43, 11.66, 0.28779, 20, -12.34, 14.67, 1.2E-4, 3, 18, 22.28, 11.47, 0.16976, 19, 6.45, 10.3, 0.73978, 20, -4.94, 11.64, 0.09047, 3, 18, 31.32, 14.47, 7.7E-4, 19, 15.93, 11.22, 0.29527, 20, 4.51, 10.49, 0.70396, 1, 20, 20.76, 8.74, 1, 1, 20, 22.32, 4.93, 1, 1, 20, 18.8, 0.8, 1, 1, 20, 22.25, -2.85, 1, 1, 20, 20.47, -6.06, 1, 2, 19, 28.85, -7.66, 6.2E-4, 20, 13.04, -10.73, 0.99938, 4, 14, -31.94, 7.77, 6.0E-5, 18, 31.63, -9.26, 1.2E-4, 19, 10.98, -11.98, 0.78892, 20, -5.34, -11.09, 0.21091, 3, 14, -21.72, 7.08, 0.08053, 18, 21.44, -8.16, 0.33645, 19, 1.29, -8.66, 0.58302, 3, 14, -19, 13.33, 0.33606, 18, 18.48, -14.29, 0.55077, 19, -2.96, -13.99, 0.11318, 3, 14, -14.41, 23.9, 0.60737, 18, 13.46, -24.67, 0.39011, 19, -10.14, -23, 0.00252, 2, 14, -1.14, 25.99, 0.74328, 18, 0.11, -26.22, 0.25672, 2, 14, 0.34, 17.69, 0.83628, 18, -1.03, -17.88, 0.16372, 2, 14, 15.38, 14.53, 0.89656, 15, -10.98, 10.19, 0.10344, 4, 14, 24.89, 10.63, 0.34535, 15, -0.88, 12.12, 0.61448, 16, -4.44, 16.86, 0.04017, 17, -5.93, 21.46, 0, 4, 14, 33.52, 4.42, 0.00364, 15, 9.74, 11.64, 0.4954, 16, 4.4, 10.94, 0.39702, 17, -0.48, 12.33, 0.10393, 3, 15, 14, 12.71, 0.19472, 16, 8.59, 9.65, 0.43705, 17, 2.77, 9.37, 0.36823, 3, 15, 17.39, 13.56, 0.05932, 16, 11.94, 8.62, 0.23228, 17, 5.35, 7.01, 0.7084, 1, 17, 16.67, 1.4, 1, 3, 14, -12.35, 14.83, 0.50688, 18, 11.77, -15.53, 0.47071, 19, -9.78, -13.7, 0.02241, 2, 19, 21.72, 2.77, 0.00273, 20, 8.34, 0.99, 0.99727, 3, 18, 26.49, 2.14, 3.4E-4, 19, 8.49, 0.26, 0.99809, 20, -5.12, 1.41, 0.00158, 2, 18, 18.18, 0.62, 0.51073, 19, 0.05, 0.62, 0.48927, 2, 14, -10.13, -0.03, 0.01116, 18, 10.15, -0.59, 0.98884, 1, 14, -0.82, 2.86, 1, 1, 14, 8.71, 1.93, 1, 1, 14, 15.76, 0.29, 1, 4, 14, 22.94, -5.1, 0.03372, 15, 6.08, -2.13, 0.96289, 16, -5.87, 1.07, 0.00279, 18, -22.69, 5.81, 6.0E-4, 4, 14, 25.68, -8.03, 0.01954, 15, 9.98, -3.08, 0.81424, 16, -3.03, -1.76, 0.16608, 18, -25.32, 8.85, 1.3E-4, 4, 14, 31.23, -10.48, 0.00158, 15, 15.96, -2.1, 0.06142, 16, 2.6, -4.03, 0.93499, 17, -8.5, -0.44, 0.00201, 2, 16, 9.05, -3.13, 0.79823, 17, -2.28, -2.38, 0.20177, 1, 17, 3.56, -1.61, 1, 1, 17, 5.48, -0.88, 1 ],
				"hull": 32,
				"edges": [ 0, 2, 2, 4, 4, 6, 6, 8, 8, 10, 10, 12, 12, 14, 22, 24, 24, 26, 26, 28, 28, 30, 30, 32, 32, 34, 34, 36, 36, 38, 40, 42, 46, 48, 48, 50, 50, 52, 52, 54, 54, 56, 60, 62, 0, 62, 38, 40, 36, 32, 32, 28, 42, 44, 44, 46, 18, 20, 20, 22, 44, 64, 64, 50, 64, 46, 14, 16, 16, 18, 56, 58, 58, 60, 26, 66, 66, 38, 32, 66, 24, 68, 68, 40, 66, 68, 22, 70, 70, 42, 68, 70, 20, 72, 72, 64, 70, 72, 18, 74, 74, 50, 72, 74, 16, 76, 76, 52, 74, 76, 14, 78, 78, 54, 76, 78, 12, 80, 80, 56, 78, 80, 10, 82, 82, 56, 80, 82, 8, 84, 84, 58, 82, 84, 6, 86, 86, 58, 84, 86, 4, 88, 88, 60, 86, 88, 2, 90, 90, 60, 88, 90, 90, 62 ],
				"width": 107,
				"height": 52
			}
		},
		"hongheidazhan_wuya_chibang1": {
			"hongheidazhan_wuya_chibang1": {
				"type": "mesh",
				"uvs": [ 0.5774, 0.99632, 0.48098, 0.93066, 0.37272, 0.85693, 0.14454, 0.72142, 0.15125, 0.56268, 0.08064, 0.43253, 0, 0.28391, 0.09085, 0.15033, 0.25863, 0, 0.50358, 0.11355, 0.73176, 0.20841, 0.80751, 0.28666, 0.87605, 0.35747, 0.91632, 0.51234, 0.91296, 0.64398, 0.91967, 0.80466, 0.79216, 0.94405, 0.28572, 0.13296, 0.3782, 0.24489, 0.42912, 0.3626, 0.45589, 0.47643, 0.54117, 0.61397, 0.62485, 0.75755, 0.66058, 0.82942, 0.63434, 0.93726 ],
				"triangles": [ 13, 21, 12, 21, 4, 20, 4, 19, 20, 4, 5, 19, 21, 20, 12, 20, 11, 12, 20, 19, 11, 5, 18, 19, 5, 6, 18, 19, 10, 11, 19, 18, 10, 18, 7, 17, 18, 6, 7, 18, 9, 10, 18, 17, 9, 7, 8, 17, 17, 8, 9, 0, 24, 16, 0, 1, 24, 24, 23, 16, 16, 23, 15, 24, 1, 23, 1, 2, 23, 2, 22, 23, 2, 21, 22, 2, 3, 21, 15, 23, 14, 23, 22, 14, 22, 21, 14, 21, 3, 4, 14, 21, 13 ],
				"vertices": [ 1, 11, -1.75, 7.68, 1, 1, 11, 4.51, 10.09, 1, 1, 11, 11.54, 12.81, 1, 2, 11, 24.9, 19.04, 0.8, 12, -10.45, 17.53, 0.2, 2, 11, 36.5, 14.69, 0.40466, 12, 1.72, 15.19, 0.59534, 2, 11, 47.13, 14.36, 0.02868, 12, 12.25, 16.66, 0.97132, 1, 12, 24.28, 18.33, 1, 1, 12, 33.89, 12.59, 1, 1, 12, 44.21, 3.21, 1, 1, 12, 33.67, -6.2, 1, 2, 11, 54.02, -19.06, 5.5E-4, 12, 24.68, -15.12, 0.99945, 2, 11, 47.14, -20.28, 0.02243, 12, 18.1, -17.48, 0.97757, 2, 11, 40.91, -21.38, 0.09275, 12, 12.14, -19.61, 0.90725, 2, 11, 28.9, -19.12, 0.47471, 12, -0.07, -19.41, 0.52529, 2, 11, 19.25, -15.61, 0.86432, 12, -10.17, -17.57, 0.13568, 2, 11, 7.32, -11.78, 0.99855, 12, -22.59, -15.81, 0.00145, 1, 11, -1.07, -2.79, 1, 1, 12, 33.78, 3.71, 1, 1, 12, 24.49, 1.04, 1, 1, 12, 15.06, 0.29, 1, 2, 11, 38.35, -0.47, 0.232, 12, 6.1, 0.57, 0.768, 2, 11, 26.96, -0.57, 0.74526, 12, -5.11, -1.46, 0.25474, 2, 11, 15.14, -0.45, 0.9999, 12, -16.78, -3.33, 1.0E-4, 1, 11, 9.32, -0.13, 1, 1, 11, 1.76, 3.74, 1 ],
				"hull": 17,
				"edges": [ 4, 6, 6, 8, 12, 14, 14, 16, 16, 18, 18, 20, 24, 26, 26, 28, 28, 30, 30, 32, 0, 32, 0, 2, 2, 4, 8, 10, 10, 12, 20, 22, 22, 24, 14, 34, 34, 18, 16, 34, 12, 36, 36, 20, 34, 36, 10, 38, 38, 22, 36, 38, 8, 40, 40, 24, 38, 40, 6, 42, 42, 26, 40, 42, 4, 44, 44, 28, 42, 44, 4, 46, 46, 30, 44, 46, 2, 48, 48, 32, 46, 48, 48, 0 ],
				"width": 45,
				"height": 78
			}
		},
		"hongheidazhan_wuya_chibang2": {
			"hongheidazhan_wuya_chibang2": {
				"type": "mesh",
				"uvs": [ 0, 0.82567, 0.09415, 0.75924, 0.16911, 0.66717, 0.19812, 0.56228, 0.30451, 0.41659, 0.43266, 0.41543, 0.57531, 0.33481, 0.62127, 0.28457, 0.67445, 0.22642, 0.75666, 0.14251, 0.82436, 0.05976, 0.88722, 0.11454, 0.93316, 0.22759, 0.95251, 0.33364, 0.92108, 0.44087, 0.8969, 0.54926, 0.84612, 0.632, 0.72522, 0.71941, 0.72764, 0.81731, 0.67203, 0.91754, 0.56371, 0.97981, 0.35819, 1, 0.14058, 0.98564, 0.05837, 0.91571, 0.82765, 0.1273, 0.79986, 0.22699, 0.76882, 0.30643, 0.72916, 0.382, 0.64476, 0.47657, 0.50786, 0.59561, 0.40315, 0.68916, 0.37418, 0.78491, 0.30896, 0.86791, 0.27151, 0.94275 ],
				"triangles": [ 29, 28, 16, 16, 28, 15, 4, 5, 29, 29, 5, 28, 28, 27, 15, 15, 27, 14, 5, 6, 28, 28, 6, 27, 27, 26, 14, 14, 26, 13, 6, 7, 27, 27, 7, 26, 26, 25, 13, 25, 12, 13, 7, 8, 26, 26, 8, 25, 25, 24, 12, 24, 11, 12, 8, 9, 25, 25, 9, 24, 9, 10, 24, 24, 10, 11, 22, 33, 21, 21, 33, 20, 22, 23, 33, 33, 32, 20, 20, 32, 19, 33, 23, 32, 32, 31, 19, 19, 31, 18, 23, 0, 32, 0, 1, 32, 32, 1, 31, 31, 30, 18, 30, 17, 18, 1, 2, 31, 31, 2, 30, 30, 29, 17, 17, 29, 16, 2, 3, 30, 30, 3, 29, 3, 4, 29 ],
				"vertices": [ 1, 9, 11.86, 11.6, 1, 1, 9, 22.5, 8.15, 1, 1, 9, 36.2, 6.95, 1, 1, 9, 50.73, 9.2, 1, 2, 9, 72.17, 8.08, 0.33717, 10, 8.62, 10.81, 0.66283, 2, 9, 74.75, -0.11, 0.03147, 10, 13.22, 3.55, 0.96853, 1, 10, 27.76, 1.19, 1, 1, 10, 35.32, 2.18, 1, 1, 10, 44.08, 3.33, 1, 1, 10, 56.91, 4.67, 1, 1, 10, 69.1, 6.76, 1, 1, 10, 64.77, -0.79, 1, 1, 10, 52.94, -11.57, 1, 1, 10, 41, -20.33, 1, 2, 9, 80.6, -32.5, 0.00282, 10, 27.17, -26.26, 0.99718, 2, 9, 65.69, -35.2, 0.09591, 10, 13.45, -32.69, 0.90409, 2, 9, 53.7, -35.18, 0.29778, 10, 1.85, -35.75, 0.70222, 2, 9, 39.75, -30.85, 0.68926, 10, -12.74, -35.13, 0.31074, 2, 9, 26.75, -34.84, 0.9099, 10, -24.29, -42.32, 0.0901, 2, 9, 12.33, -35.2, 0.97897, 10, -38.13, -46.37, 0.02103, 2, 9, 1.98, -30.69, 0.9956, 10, -49.3, -44.65, 0.0044, 1, 9, -4.61, -18.27, 1, 1, 9, -6.81, -3.72, 1, 1, 9, 0.96, 4.31, 1, 1, 10, 61.19, 1.7, 1, 1, 10, 48.37, -3.89, 1, 1, 10, 37.85, -7.84, 1, 1, 10, 27.5, -11.02, 1, 2, 9, 70.61, -16.14, 0.00926, 10, 13.32, -13.01, 0.99074, 2, 9, 52.15, -12.01, 0.55507, 10, -5.58, -13.75, 0.44493, 2, 9, 37.69, -8.96, 0.93005, 10, -20.34, -14.5, 0.06995, 2, 9, 24.38, -10.85, 0.97917, 10, -32.72, -19.74, 0.02083, 2, 9, 12.08, -9.92, 0.99778, 10, -44.85, -21.99, 0.00222, 1, 9, 1.39, -10.45, 1 ],
				"hull": 24,
				"edges": [ 0, 2, 2, 4, 4, 6, 6, 8, 8, 10, 10, 12, 16, 18, 18, 20, 20, 22, 22, 24, 24, 26, 26, 28, 28, 30, 30, 32, 32, 34, 34, 36, 36, 38, 38, 40, 40, 42, 42, 44, 44, 46, 0, 46, 12, 14, 14, 16, 18, 48, 48, 22, 20, 48, 16, 50, 50, 24, 48, 50, 14, 52, 52, 26, 50, 52, 12, 54, 54, 28, 52, 54, 10, 56, 56, 30, 54, 56, 6, 58, 58, 32, 56, 58, 4, 60, 60, 34, 58, 60, 2, 62, 62, 36, 60, 62, 0, 64, 64, 38, 62, 64, 40, 66, 66, 46, 64, 66, 66, 44 ],
				"width": 67,
				"height": 139
			}
		},
		"hongheidazhan_wuya_chibang3": {
			"hongheidazhan_wuya_chibang2": {
				"type": "mesh",
				"uvs": [ 0, 0.82567, 0.09415, 0.75924, 0.16911, 0.66717, 0.19812, 0.56228, 0.30451, 0.41659, 0.43266, 0.41543, 0.57531, 0.33481, 0.62127, 0.28457, 0.67445, 0.22642, 0.75666, 0.14251, 0.82436, 0.05976, 0.88722, 0.11454, 0.93316, 0.22759, 0.95251, 0.33364, 0.92108, 0.44087, 0.8969, 0.54926, 0.84612, 0.632, 0.72522, 0.71941, 0.72764, 0.81731, 0.67203, 0.91754, 0.56371, 0.97981, 0.35819, 1, 0.14058, 0.98564, 0.05837, 0.91571, 0.82765, 0.1273, 0.79986, 0.22699, 0.76882, 0.30643, 0.72916, 0.382, 0.64476, 0.47657, 0.50786, 0.59561, 0.40315, 0.68916, 0.37418, 0.78491, 0.30896, 0.86791, 0.27151, 0.94275 ],
				"triangles": [ 29, 28, 16, 16, 28, 15, 4, 5, 29, 29, 5, 28, 28, 27, 15, 15, 27, 14, 5, 6, 28, 28, 6, 27, 27, 26, 14, 14, 26, 13, 6, 7, 27, 27, 7, 26, 26, 25, 13, 25, 12, 13, 7, 8, 26, 26, 8, 25, 25, 24, 12, 24, 11, 12, 8, 9, 25, 25, 9, 24, 9, 10, 24, 24, 10, 11, 22, 33, 21, 21, 33, 20, 22, 23, 33, 33, 32, 20, 20, 32, 19, 33, 23, 32, 32, 31, 19, 19, 31, 18, 23, 0, 32, 0, 1, 32, 32, 1, 31, 31, 30, 18, 30, 17, 18, 1, 2, 31, 31, 2, 30, 30, 29, 17, 17, 29, 16, 2, 3, 30, 30, 3, 29, 3, 4, 29 ],
				"vertices": [ 1, 21, 11.86, 11.6, 1, 1, 21, 22.5, 8.15, 1, 1, 21, 36.2, 6.95, 1, 1, 21, 50.73, 9.2, 1, 2, 21, 72.17, 8.08, 0.33717, 22, 8.62, 10.81, 0.66283, 2, 21, 74.75, -0.11, 0.03147, 22, 13.22, 3.55, 0.96853, 1, 22, 27.76, 1.19, 1, 1, 22, 35.32, 2.18, 1, 1, 22, 44.08, 3.33, 1, 1, 22, 56.91, 4.67, 1, 1, 22, 69.1, 6.76, 1, 1, 22, 64.77, -0.79, 1, 1, 22, 52.94, -11.57, 1, 1, 22, 41, -20.33, 1, 2, 21, 80.6, -32.5, 0.00282, 22, 27.17, -26.26, 0.99718, 2, 21, 65.69, -35.2, 0.09591, 22, 13.45, -32.69, 0.90409, 2, 21, 53.7, -35.18, 0.29778, 22, 1.85, -35.75, 0.70222, 2, 21, 39.75, -30.85, 0.68926, 22, -12.74, -35.13, 0.31074, 2, 21, 26.75, -34.84, 0.9099, 22, -24.29, -42.32, 0.0901, 2, 21, 12.33, -35.2, 0.97897, 22, -38.13, -46.37, 0.02103, 2, 21, 1.98, -30.69, 0.9956, 22, -49.3, -44.65, 0.0044, 1, 21, -4.61, -18.27, 1, 1, 21, -6.81, -3.72, 1, 1, 21, 0.96, 4.31, 1, 1, 22, 61.19, 1.7, 1, 1, 22, 48.37, -3.89, 1, 1, 22, 37.85, -7.84, 1, 1, 22, 27.5, -11.02, 1, 2, 21, 70.61, -16.14, 0.00926, 22, 13.32, -13.01, 0.99074, 2, 21, 52.15, -12.01, 0.55507, 22, -5.58, -13.75, 0.44493, 2, 21, 37.69, -8.96, 0.93005, 22, -20.34, -14.5, 0.06995, 2, 21, 24.38, -10.85, 0.97917, 22, -32.72, -19.74, 0.02083, 2, 21, 12.08, -9.92, 0.99778, 22, -44.85, -21.99, 0.00222, 1, 21, 1.39, -10.45, 1 ],
				"hull": 24,
				"edges": [ 0, 2, 2, 4, 4, 6, 6, 8, 8, 10, 10, 12, 16, 18, 18, 20, 20, 22, 22, 24, 24, 26, 26, 28, 28, 30, 30, 32, 32, 34, 34, 36, 36, 38, 38, 40, 40, 42, 42, 44, 44, 46, 0, 46, 12, 14, 14, 16, 18, 48, 48, 22, 20, 48, 16, 50, 50, 24, 48, 50, 14, 52, 52, 26, 50, 52, 12, 54, 54, 28, 52, 54, 10, 56, 56, 30, 54, 56, 6, 58, 58, 32, 56, 58, 4, 60, 60, 34, 58, 60, 2, 62, 62, 36, 60, 62, 0, 64, 64, 38, 62, 64, 40, 66, 66, 46, 64, 66, 66, 44 ],
				"width": 67,
				"height": 139
			}
		},
		"hongheidazhan_wuya_chibang4": {
			"hongheidazhan_wuya_chibang1": {
				"type": "mesh",
				"uvs": [ 0.5774, 0.99632, 0.48098, 0.93066, 0.37272, 0.85693, 0.14454, 0.72142, 0.15125, 0.56268, 0.08064, 0.43253, 0, 0.28391, 0.09085, 0.15033, 0.25863, 0, 0.50358, 0.11355, 0.73176, 0.20841, 0.80751, 0.28666, 0.87605, 0.35747, 0.91632, 0.51234, 0.91296, 0.64398, 0.91967, 0.80466, 0.79216, 0.94405, 0.28572, 0.13296, 0.3782, 0.24489, 0.42912, 0.3626, 0.45589, 0.47643, 0.54117, 0.61397, 0.62485, 0.75755, 0.66058, 0.82942, 0.63434, 0.93726 ],
				"triangles": [ 13, 21, 12, 21, 4, 20, 4, 19, 20, 4, 5, 19, 21, 20, 12, 20, 11, 12, 20, 19, 11, 5, 18, 19, 5, 6, 18, 19, 10, 11, 19, 18, 10, 18, 7, 17, 18, 6, 7, 18, 9, 10, 18, 17, 9, 7, 8, 17, 17, 8, 9, 0, 24, 16, 0, 1, 24, 24, 23, 16, 16, 23, 15, 24, 1, 23, 1, 2, 23, 2, 22, 23, 2, 21, 22, 2, 3, 21, 15, 23, 14, 23, 22, 14, 22, 21, 14, 21, 3, 4, 14, 21, 13 ],
				"vertices": [ 1, 23, -1.75, 7.68, 1, 1, 23, 4.51, 10.09, 1, 1, 23, 11.54, 12.81, 1, 2, 23, 24.9, 19.04, 0.8, 24, -10.45, 17.53, 0.2, 2, 23, 36.5, 14.69, 0.40466, 24, 1.72, 15.19, 0.59534, 2, 23, 47.13, 14.36, 0.02868, 24, 12.25, 16.66, 0.97132, 1, 24, 24.28, 18.33, 1, 1, 24, 33.89, 12.59, 1, 1, 24, 44.21, 3.21, 1, 1, 24, 33.67, -6.2, 1, 2, 23, 54.02, -19.06, 5.5E-4, 24, 24.68, -15.12, 0.99945, 2, 23, 47.14, -20.28, 0.02243, 24, 18.1, -17.48, 0.97757, 2, 23, 40.91, -21.38, 0.09275, 24, 12.14, -19.61, 0.90725, 2, 23, 28.9, -19.12, 0.47471, 24, -0.07, -19.41, 0.52529, 2, 23, 19.25, -15.61, 0.86432, 24, -10.17, -17.57, 0.13568, 2, 23, 7.32, -11.78, 0.99855, 24, -22.59, -15.81, 0.00145, 1, 23, -1.07, -2.79, 1, 1, 24, 33.78, 3.71, 1, 1, 24, 24.49, 1.04, 1, 1, 24, 15.06, 0.29, 1, 2, 23, 38.35, -0.47, 0.232, 24, 6.1, 0.57, 0.768, 2, 23, 26.96, -0.57, 0.74526, 24, -5.11, -1.46, 0.25474, 2, 23, 15.14, -0.45, 0.9999, 24, -16.78, -3.33, 1.0E-4, 1, 23, 9.32, -0.13, 1, 1, 23, 1.76, 3.74, 1 ],
				"hull": 17,
				"edges": [ 4, 6, 6, 8, 12, 14, 14, 16, 16, 18, 18, 20, 24, 26, 26, 28, 28, 30, 30, 32, 0, 32, 0, 2, 2, 4, 8, 10, 10, 12, 20, 22, 22, 24, 14, 34, 34, 18, 16, 34, 12, 36, 36, 20, 34, 36, 10, 38, 38, 22, 36, 38, 8, 40, 40, 24, 38, 40, 6, 42, 42, 26, 40, 42, 4, 44, 44, 28, 42, 44, 4, 46, 46, 30, 44, 46, 2, 48, 48, 32, 46, 48, 48, 0 ],
				"width": 45,
				"height": 78
			}
		},
		"root": {
			"hongheidazhan_fzglow_8": { "path": "hongheidazhan_fzglow_08", "width": 181, "height": 183 }
		},
		"root2": {
			"hongheidazhan_fzjian_08": { "width": 158, "height": 189 }
		}
	}
},
"animations": {
	"animation1": {
		"slots": {
			"feixing_1": {
				"attachment": [
					{ "time": 0, "name": "feixing_1" }
				]
			},
			"hongheidazhan_fzglow_01": {
				"color": [
					{ "time": 0, "color": "ffffff00" }
				],
				"attachment": [
					{ "time": 0, "name": null }
				]
			},
			"hongheidazhan_fzjian_01": {
				"color": [
					{ "time": 0, "color": "ffffff00" }
				],
				"attachment": [
					{ "time": 0, "name": null }
				]
			},
			"hongheidazhan_shuijing": {
				"color": [
					{ "time": 0.9333, "color": "ffffffff" },
					{ "time": 1.0333, "color": "ffffff00" }
				],
				"attachment": [
					{ "time": 0, "name": "hongheidazhan_shuijing" }
				]
			},
			"hongheidazhan_shuijing2": {
				"color": [
					{ "time": 0.9333, "color": "ffffffff" },
					{ "time": 1.0333, "color": "ffffff00" }
				],
				"attachment": [
					{ "time": 0, "name": null }
				]
			},
			"hongheidazhan_wuya": {
				"color": [
					{ "time": 0.9333, "color": "ffffffff" },
					{ "time": 1.0333, "color": "ffffff00" }
				],
				"attachment": [
					{ "time": 0, "name": "hongheidazhan_wuya" }
				]
			},
			"hongheidazhan_wuya2": {
				"color": [
					{ "time": 0.9333, "color": "ffffffff" },
					{ "time": 1.0333, "color": "ffffff00" }
				],
				"attachment": [
					{ "time": 0, "name": null }
				]
			},
			"hongheidazhan_wuya_chibang1": {
				"color": [
					{ "time": 0.9333, "color": "ffffffff" },
					{ "time": 1.0333, "color": "ffffff00" }
				],
				"attachment": [
					{ "time": 0, "name": "hongheidazhan_wuya_chibang1" }
				]
			},
			"hongheidazhan_wuya_chibang2": {
				"color": [
					{ "time": 0.9333, "color": "ffffffff" },
					{ "time": 1.0333, "color": "ffffff00" }
				],
				"attachment": [
					{ "time": 0, "name": "hongheidazhan_wuya_chibang2" }
				]
			},
			"hongheidazhan_wuya_chibang3": {
				"color": [
					{ "time": 0.9333, "color": "ffffffff" },
					{ "time": 1.0333, "color": "ffffff00" }
				],
				"attachment": [
					{ "time": 0, "name": null }
				]
			},
			"hongheidazhan_wuya_chibang4": {
				"color": [
					{ "time": 0.9333, "color": "ffffffff" },
					{ "time": 1.0333, "color": "ffffff00" }
				],
				"attachment": [
					{ "time": 0, "name": null }
				]
			},
			"root": {
				"attachment": [
					{ "time": 0, "name": null }
				]
			},
			"root2": {
				"attachment": [
					{ "time": 0, "name": null }
				]
			}
		},
		"bones": {
			"chibang2": {
				"rotate": [
					{ "time": 0, "angle": 0 },
					{ "time": 0.1333, "angle": -44.4 },
					{ "time": 0.2667, "angle": 0 },
					{ "time": 0.4, "angle": -44.4 },
					{ "time": 0.5333, "angle": 0 },
					{ "time": 0.6667, "angle": -44.4 },
					{ "time": 0.8, "angle": 0 },
					{ "time": 0.9, "angle": -44.4 }
				],
				"scale": [
					{ "time": 0, "x": 1, "y": 1 },
					{ "time": 0.1333, "x": 0.54, "y": 1 },
					{ "time": 0.2667, "x": 1, "y": 1 },
					{ "time": 0.4, "x": 0.54, "y": 1 },
					{ "time": 0.5333, "x": 1, "y": 1 },
					{ "time": 0.6667, "x": 0.54, "y": 1 },
					{ "time": 0.8, "x": 1, "y": 1 },
					{ "time": 0.9, "x": 0.54, "y": 1 }
				],
				"shear": [
					{ "time": 0, "x": 0, "y": 0 },
					{ "time": 0.1333, "x": -44.4, "y": 12 },
					{ "time": 0.2667, "x": 0, "y": 0 },
					{ "time": 0.4, "x": -44.4, "y": 12 },
					{ "time": 0.5333, "x": 0, "y": 0 },
					{ "time": 0.6667, "x": -44.4, "y": 12 },
					{ "time": 0.8, "x": 0, "y": 0 },
					{ "time": 0.9, "x": -44.4, "y": 12 }
				]
			},
			"bone8": {
				"rotate": [
					{ "time": 0, "angle": 0 },
					{ "time": 0.1333, "angle": -32.4 },
					{ "time": 0.2667, "angle": 0 },
					{ "time": 0.4, "angle": -32.4 },
					{ "time": 0.5333, "angle": 0 },
					{ "time": 0.6667, "angle": -32.4 },
					{ "time": 0.8, "angle": 0 },
					{ "time": 0.9, "angle": -32.4 }
				],
				"scale": [
					{ "time": 0, "x": 1, "y": 1 },
					{ "time": 0.1333, "x": 0.9, "y": 1 },
					{ "time": 0.2667, "x": 1, "y": 1 },
					{ "time": 0.4, "x": 0.9, "y": 1 },
					{ "time": 0.5333, "x": 1, "y": 1 },
					{ "time": 0.6667, "x": 0.9, "y": 1 },
					{ "time": 0.8, "x": 1, "y": 1 },
					{ "time": 0.9, "x": 0.9, "y": 1 }
				],
				"shear": [
					{ "time": 0, "x": 0, "y": 0 },
					{ "time": 0.1333, "x": -72, "y": -16.8 },
					{ "time": 0.2667, "x": 0, "y": 0 },
					{ "time": 0.4, "x": -72, "y": -16.8 },
					{ "time": 0.5333, "x": 0, "y": 0 },
					{ "time": 0.6667, "x": -72, "y": -16.8 },
					{ "time": 0.8, "x": 0, "y": 0 },
					{ "time": 0.9, "x": -72, "y": -16.8 }
				]
			},
			"chibang1": {
				"rotate": [
					{ "time": 0, "angle": 0 },
					{ "time": 0.1333, "angle": 25.2 },
					{ "time": 0.2667, "angle": 0 },
					{ "time": 0.4, "angle": 25.2 },
					{ "time": 0.5333, "angle": 0 },
					{ "time": 0.6667, "angle": 25.2 },
					{ "time": 0.8, "angle": 0 },
					{ "time": 0.9, "angle": 25.2 }
				],
				"scale": [
					{ "time": 0, "x": 1, "y": 1 },
					{ "time": 0.1333, "x": 0.36, "y": 1 },
					{ "time": 0.2667, "x": 1, "y": 1 },
					{ "time": 0.4, "x": 0.36, "y": 1 },
					{ "time": 0.5333, "x": 1, "y": 1 },
					{ "time": 0.6667, "x": 0.36, "y": 1 },
					{ "time": 0.8, "x": 1, "y": 1 },
					{ "time": 0.9, "x": 0.36, "y": 1 }
				],
				"shear": [
					{ "time": 0, "x": 0, "y": 0 },
					{ "time": 0.1333, "x": 8.4, "y": -58.8 },
					{ "time": 0.2667, "x": 0, "y": 0 },
					{ "time": 0.4, "x": 8.4, "y": -58.8 },
					{ "time": 0.5333, "x": 0, "y": 0 },
					{ "time": 0.6667, "x": 8.4, "y": -58.8 },
					{ "time": 0.8, "x": 0, "y": 0 },
					{ "time": 0.9, "x": 8.4, "y": -58.8 }
				]
			},
			"bone9": {
				"rotate": [
					{ "time": 0, "angle": 0 },
					{ "time": 0.1333, "angle": -12 },
					{ "time": 0.2667, "angle": 0 },
					{ "time": 0.4, "angle": -12 },
					{ "time": 0.5333, "angle": 0 },
					{ "time": 0.6667, "angle": -12 },
					{ "time": 0.8, "angle": 0 },
					{ "time": 0.9, "angle": -12 }
				],
				"scale": [
					{ "time": 0, "x": 1, "y": 1 },
					{ "time": 0.1333, "x": 0.5, "y": 1 },
					{ "time": 0.2667, "x": 1, "y": 1 },
					{ "time": 0.4, "x": 0.5, "y": 1 },
					{ "time": 0.5333, "x": 1, "y": 1 },
					{ "time": 0.6667, "x": 0.5, "y": 1 },
					{ "time": 0.8, "x": 1, "y": 1 },
					{ "time": 0.9, "x": 0.5, "y": 1 }
				],
				"shear": [
					{ "time": 0, "x": 0, "y": 0 },
					{ "time": 0.1333, "x": 0, "y": -68.4 },
					{ "time": 0.2667, "x": 0, "y": 0 },
					{ "time": 0.4, "x": 0, "y": -68.4 },
					{ "time": 0.5333, "x": 0, "y": 0 },
					{ "time": 0.6667, "x": 0, "y": -68.4 },
					{ "time": 0.8, "x": 0, "y": 0 },
					{ "time": 0.9, "x": 0, "y": -68.4 }
				]
			},
			"bone2": {
				"rotate": [
					{ "time": 0, "angle": 0 },
					{ "time": 0.1333, "angle": -14.4 },
					{ "time": 0.2667, "angle": 0 },
					{ "time": 0.4, "angle": -14.4 },
					{ "time": 0.5333, "angle": 0 },
					{ "time": 0.6667, "angle": -14.4 },
					{ "time": 0.8, "angle": 0 },
					{ "time": 0.9, "angle": -25.2 },
					{ "time": 0.9333, "angle": 12 }
				]
			},
			"bone3": {
				"rotate": [
					{ "time": 0, "angle": 0 },
					{ "time": 0.1333, "angle": 6 },
					{ "time": 0.2667, "angle": 0 },
					{ "time": 0.4, "angle": 6 },
					{ "time": 0.5333, "angle": 0 },
					{ "time": 0.6667, "angle": 6 },
					{ "time": 0.8, "angle": 0 },
					{ "time": 0.9, "angle": 1.2 },
					{ "time": 0.9333, "angle": 12 }
				]
			},
			"bone5": {
				"rotate": [
					{ "time": 0, "angle": 0 },
					{ "time": 0.1333, "angle": 343.2 },
					{ "time": 0.2667, "angle": 0 },
					{ "time": 0.4, "angle": 343.2 },
					{ "time": 0.5333, "angle": 0 },
					{ "time": 0.6667, "angle": 343.2 },
					{ "time": 0.8, "angle": 0 }
				]
			},
			"bone6": {
				"rotate": [
					{ "time": 0, "angle": 0 },
					{ "time": 0.1333, "angle": -6 },
					{ "time": 0.2667, "angle": 0 },
					{ "time": 0.4, "angle": -6 },
					{ "time": 0.5333, "angle": 0 },
					{ "time": 0.6667, "angle": -6 },
					{ "time": 0.8, "angle": 0 }
				]
			},
			"bone7": {
				"rotate": [
					{ "time": 0, "angle": 0 },
					{ "time": 0.1333, "angle": -15.6 },
					{ "time": 0.2667, "angle": 0 },
					{ "time": 0.4, "angle": -15.6 },
					{ "time": 0.5333, "angle": 0 },
					{ "time": 0.6667, "angle": -15.6 },
					{ "time": 0.8, "angle": 0 }
				]
			},
			"shenti": {
				"scale": [
					{ "time": 0, "x": 0.5, "y": 0.5 },
					{ "time": 0.1333, "x": 1, "y": 1 }
				]
			},
			"shenti2": {
				"scale": [
					{ "time": 0, "x": 0.5, "y": 0.5 },
					{ "time": 0.1333, "x": 1, "y": 1 }
				]
			},
			"bone11": {
				"rotate": [
					{ "time": 0, "angle": 0 },
					{ "time": 0.1333, "angle": 6 },
					{ "time": 0.2667, "angle": 0 },
					{ "time": 0.4, "angle": 6 },
					{ "time": 0.5333, "angle": 0 },
					{ "time": 0.6667, "angle": 6 },
					{ "time": 0.8, "angle": 0 },
					{ "time": 0.9, "angle": 1.2 },
					{ "time": 0.9333, "angle": 12 }
				]
			},
			"bone10": {
				"rotate": [
					{ "time": 0, "angle": 0 },
					{ "time": 0.1333, "angle": -14.4 },
					{ "time": 0.2667, "angle": 0 },
					{ "time": 0.4, "angle": -14.4 },
					{ "time": 0.5333, "angle": 0 },
					{ "time": 0.6667, "angle": -14.4 },
					{ "time": 0.8, "angle": 0 },
					{ "time": 0.9, "angle": -25.2 },
					{ "time": 0.9333, "angle": 12 }
				]
			},
			"bone15": {
				"rotate": [
					{ "time": 0, "angle": 0 },
					{ "time": 0.1333, "angle": -15.6 },
					{ "time": 0.2667, "angle": 0 },
					{ "time": 0.4, "angle": -15.6 },
					{ "time": 0.5333, "angle": 0 },
					{ "time": 0.6667, "angle": -15.6 },
					{ "time": 0.8, "angle": 0 }
				]
			},
			"bone14": {
				"rotate": [
					{ "time": 0, "angle": 0 },
					{ "time": 0.1333, "angle": -6 },
					{ "time": 0.2667, "angle": 0 },
					{ "time": 0.4, "angle": -6 },
					{ "time": 0.5333, "angle": 0 },
					{ "time": 0.6667, "angle": -6 },
					{ "time": 0.8, "angle": 0 }
				]
			},
			"bone13": {
				"rotate": [
					{ "time": 0, "angle": 0 },
					{ "time": 0.1333, "angle": 343.2 },
					{ "time": 0.2667, "angle": 0 },
					{ "time": 0.4, "angle": 343.2 },
					{ "time": 0.5333, "angle": 0 },
					{ "time": 0.6667, "angle": 343.2 },
					{ "time": 0.8, "angle": 0 }
				]
			},
			"chibang3": {
				"rotate": [
					{ "time": 0, "angle": 0 },
					{ "time": 0.1333, "angle": -44.4 },
					{ "time": 0.2667, "angle": 0 },
					{ "time": 0.4, "angle": -44.4 },
					{ "time": 0.5333, "angle": 0 },
					{ "time": 0.6667, "angle": -44.4 },
					{ "time": 0.8, "angle": 0 },
					{ "time": 0.9, "angle": -44.4 }
				],
				"scale": [
					{ "time": 0, "x": 1, "y": 1 },
					{ "time": 0.1333, "x": 0.54, "y": 1 },
					{ "time": 0.2667, "x": 1, "y": 1 },
					{ "time": 0.4, "x": 0.54, "y": 1 },
					{ "time": 0.5333, "x": 1, "y": 1 },
					{ "time": 0.6667, "x": 0.54, "y": 1 },
					{ "time": 0.8, "x": 1, "y": 1 },
					{ "time": 0.9, "x": 0.54, "y": 1 }
				],
				"shear": [
					{ "time": 0, "x": 0, "y": 0 },
					{ "time": 0.1333, "x": -44.4, "y": 12 },
					{ "time": 0.2667, "x": 0, "y": 0 },
					{ "time": 0.4, "x": -44.4, "y": 12 },
					{ "time": 0.5333, "x": 0, "y": 0 },
					{ "time": 0.6667, "x": -44.4, "y": 12 },
					{ "time": 0.8, "x": 0, "y": 0 },
					{ "time": 0.9, "x": -44.4, "y": 12 }
				]
			},
			"bone16": {
				"rotate": [
					{ "time": 0, "angle": 0 },
					{ "time": 0.1333, "angle": -32.4 },
					{ "time": 0.2667, "angle": 0 },
					{ "time": 0.4, "angle": -32.4 },
					{ "time": 0.5333, "angle": 0 },
					{ "time": 0.6667, "angle": -32.4 },
					{ "time": 0.8, "angle": 0 },
					{ "time": 0.9, "angle": -32.4 }
				],
				"scale": [
					{ "time": 0, "x": 1, "y": 1 },
					{ "time": 0.1333, "x": 0.9, "y": 1 },
					{ "time": 0.2667, "x": 1, "y": 1 },
					{ "time": 0.4, "x": 0.9, "y": 1 },
					{ "time": 0.5333, "x": 1, "y": 1 },
					{ "time": 0.6667, "x": 0.9, "y": 1 },
					{ "time": 0.8, "x": 1, "y": 1 },
					{ "time": 0.9, "x": 0.9, "y": 1 }
				],
				"shear": [
					{ "time": 0, "x": 0, "y": 0 },
					{ "time": 0.1333, "x": -72, "y": -16.8 },
					{ "time": 0.2667, "x": 0, "y": 0 },
					{ "time": 0.4, "x": -72, "y": -16.8 },
					{ "time": 0.5333, "x": 0, "y": 0 },
					{ "time": 0.6667, "x": -72, "y": -16.8 },
					{ "time": 0.8, "x": 0, "y": 0 },
					{ "time": 0.9, "x": -72, "y": -16.8 }
				]
			},
			"chibang4": {
				"rotate": [
					{ "time": 0, "angle": 0 },
					{ "time": 0.1333, "angle": 25.2 },
					{ "time": 0.2667, "angle": 0 },
					{ "time": 0.4, "angle": 25.2 },
					{ "time": 0.5333, "angle": 0 },
					{ "time": 0.6667, "angle": 25.2 },
					{ "time": 0.8, "angle": 0 },
					{ "time": 0.9, "angle": 25.2 }
				],
				"scale": [
					{ "time": 0, "x": 1, "y": 1 },
					{ "time": 0.1333, "x": 0.36, "y": 1 },
					{ "time": 0.2667, "x": 1, "y": 1 },
					{ "time": 0.4, "x": 0.36, "y": 1 },
					{ "time": 0.5333, "x": 1, "y": 1 },
					{ "time": 0.6667, "x": 0.36, "y": 1 },
					{ "time": 0.8, "x": 1, "y": 1 },
					{ "time": 0.9, "x": 0.36, "y": 1 }
				],
				"shear": [
					{ "time": 0, "x": 0, "y": 0 },
					{ "time": 0.1333, "x": 8.4, "y": -58.8 },
					{ "time": 0.2667, "x": 0, "y": 0 },
					{ "time": 0.4, "x": 8.4, "y": -58.8 },
					{ "time": 0.5333, "x": 0, "y": 0 },
					{ "time": 0.6667, "x": 8.4, "y": -58.8 },
					{ "time": 0.8, "x": 0, "y": 0 },
					{ "time": 0.9, "x": 8.4, "y": -58.8 }
				]
			},
			"bone17": {
				"rotate": [
					{ "time": 0, "angle": 0 },
					{ "time": 0.1333, "angle": -12 },
					{ "time": 0.2667, "angle": 0 },
					{ "time": 0.4, "angle": -12 },
					{ "time": 0.5333, "angle": 0 },
					{ "time": 0.6667, "angle": -12 },
					{ "time": 0.8, "angle": 0 },
					{ "time": 0.9, "angle": -12 }
				],
				"scale": [
					{ "time": 0, "x": 1, "y": 1 },
					{ "time": 0.1333, "x": 0.5, "y": 1 },
					{ "time": 0.2667, "x": 1, "y": 1 },
					{ "time": 0.4, "x": 0.5, "y": 1 },
					{ "time": 0.5333, "x": 1, "y": 1 },
					{ "time": 0.6667, "x": 0.5, "y": 1 },
					{ "time": 0.8, "x": 1, "y": 1 },
					{ "time": 0.9, "x": 0.5, "y": 1 }
				],
				"shear": [
					{ "time": 0, "x": 0, "y": 0 },
					{ "time": 0.1333, "x": 0, "y": -68.4 },
					{ "time": 0.2667, "x": 0, "y": 0 },
					{ "time": 0.4, "x": 0, "y": -68.4 },
					{ "time": 0.5333, "x": 0, "y": 0 },
					{ "time": 0.6667, "x": 0, "y": -68.4 },
					{ "time": 0.8, "x": 0, "y": 0 },
					{ "time": 0.9, "x": 0, "y": -68.4 }
				]
			}
		},
		"paths": {
			"feixing_1": {
				"position": [
					{ "time": 0 },
					{ "time": 0.8, "position": 1 }
				]
			}
		}
	},
	"animation2": {
		"slots": {
			"hongheidazhan_fzglow_01": {
				"color": [
					{ "time": 0, "color": "ffffff00" },
					{ "time": 0.0667, "color": "ffffffff", "curve": "stepped" },
					{ "time": 0.7, "color": "ffffffff" },
					{ "time": 1.0667, "color": "ffffff00" }
				],
				"attachment": [
					{ "time": 0, "name": "hongheidazhan_fzglow_01" },
					{ "time": 0.0667, "name": "hongheidazhan_fzglow_01" },
					{ "time": 0.1333, "name": "hongheidazhan_fzglow_02" },
					{ "time": 0.2333, "name": "hongheidazhan_fzglow_03" },
					{ "time": 0.3, "name": "hongheidazhan_fzglow_04" },
					{ "time": 0.3667, "name": "hongheidazhan_fzglow_05" },
					{ "time": 0.4333, "name": "hongheidazhan_fzglow_06" },
					{ "time": 0.5333, "name": "hongheidazhan_fzglow_07" },
					{ "time": 0.5667, "name": "hongheidazhan_fzglow_08" },
					{ "time": 0.6333, "name": "hongheidazhan_fzglow_07" },
					{ "time": 0.7, "name": "hongheidazhan_fzglow_06" },
					{ "time": 0.7667, "name": "hongheidazhan_fzglow_05" },
					{ "time": 0.8333, "name": "hongheidazhan_fzglow_04" },
					{ "time": 0.9333, "name": "hongheidazhan_fzglow_03" },
					{ "time": 1, "name": "hongheidazhan_fzglow_02" },
					{ "time": 1.0667, "name": "hongheidazhan_fzglow_01" }
				]
			},
			"hongheidazhan_shuijing": {
				"color": [
					{ "time": 0, "color": "ffffffff" },
					{ "time": 0.1, "color": "ffffff00" }
				]
			},
			"hongheidazhan_shuijing2": {
				"color": [
					{ "time": 0, "color": "ffffffff" },
					{ "time": 0.1, "color": "ffffff00" }
				]
			},
			"hongheidazhan_wuya": {
				"color": [
					{ "time": 0, "color": "ffffffff" },
					{ "time": 0.1, "color": "ffffff00" }
				]
			},
			"hongheidazhan_wuya2": {
				"color": [
					{ "time": 0, "color": "ffffffff" },
					{ "time": 0.1, "color": "ffffff00" }
				]
			},
			"hongheidazhan_wuya_chibang1": {
				"color": [
					{ "time": 0, "color": "ffffffff" },
					{ "time": 0.1, "color": "ffffff00" }
				]
			},
			"hongheidazhan_wuya_chibang2": {
				"color": [
					{ "time": 0, "color": "ffffffff" },
					{ "time": 0.1, "color": "ffffff00" }
				]
			},
			"hongheidazhan_wuya_chibang3": {
				"color": [
					{ "time": 0, "color": "ffffffff" },
					{ "time": 0.1, "color": "ffffff00" }
				]
			},
			"hongheidazhan_wuya_chibang4": {
				"color": [
					{ "time": 0, "color": "ffffffff" },
					{ "time": 0.1, "color": "ffffff00" }
				]
			},
			"root": {
				"color": [
					{ "time": 0.5, "color": "ffffffff" },
					{ "time": 0.8333, "color": "ffffff00" }
				],
				"attachment": [
					{ "time": 0.4667, "name": null },
					{ "time": 0.5, "name": "hongheidazhan_fzglow_8" }
				]
			}
		},
		"bones": {
			"bone2": {
				"rotate": [
					{ "time": 0, "angle": 12 }
				]
			},
			"bone3": {
				"rotate": [
					{ "time": 0, "angle": 12 }
				]
			},
			"fazhang_glow2": {
				"scale": [
					{ "time": 0.5, "x": 1, "y": 1 },
					{ "time": 0.8333, "x": 1.3, "y": 1.3 }
				]
			},
			"bone11": {
				"rotate": [
					{ "time": 0, "angle": 12 }
				]
			},
			"bone10": {
				"rotate": [
					{ "time": 0, "angle": 12 }
				]
			}
		}
	},
	"animation3": {
		"slots": {
			"hongheidazhan_fzglow_01": {
				"color": [
					{ "time": 0, "color": "ffffff00" }
				],
				"attachment": [
					{ "time": 0, "name": null }
				]
			},
			"hongheidazhan_fzjian_01": {
				"color": [
					{ "time": 0, "color": "ffffff00" }
				],
				"attachment": [
					{ "time": 0, "name": null }
				]
			},
			"hongheidazhan_shuijing2": {
				"color": [
					{ "time": 0.4333, "color": "ffffffff" },
					{ "time": 0.5667, "color": "ffffff00" }
				],
				"attachment": [
					{ "time": 0, "name": "hongheidazhan_shuijing" }
				]
			},
			"hongheidazhan_wuya2": {
				"color": [
					{ "time": 0.4333, "color": "ffffffff" },
					{ "time": 0.5667, "color": "ffffff00" }
				],
				"attachment": [
					{ "time": 0, "name": "hongheidazhan_wuya" }
				]
			},
			"hongheidazhan_wuya_chibang3": {
				"color": [
					{ "time": 0.4333, "color": "ffffffff" },
					{ "time": 0.5667, "color": "ffffff00" }
				],
				"attachment": [
					{ "time": 0, "name": "hongheidazhan_wuya_chibang2" }
				]
			},
			"hongheidazhan_wuya_chibang4": {
				"color": [
					{ "time": 0.4333, "color": "ffffffff" },
					{ "time": 0.5667, "color": "ffffff00" }
				],
				"attachment": [
					{ "time": 0, "name": "hongheidazhan_wuya_chibang1" }
				]
			},
			"root": {
				"attachment": [
					{ "time": 0, "name": null }
				]
			},
			"root2": {
				"attachment": [
					{ "time": 0, "name": null }
				]
			}
		},
		"bones": {
			"shenti2": {
				"scale": [
					{ "time": 0, "x": 1, "y": 1 }
				]
			},
			"bone11": {
				"rotate": [
					{ "time": 0, "angle": 0 },
					{ "time": 0.1333, "angle": 6 },
					{ "time": 0.2333, "angle": 0 },
					{ "time": 0.3667, "angle": 1.2 },
					{ "time": 0.4333, "angle": 12 }
				]
			},
			"bone10": {
				"rotate": [
					{ "time": 0, "angle": 0 },
					{ "time": 0.1333, "angle": -14.4 },
					{ "time": 0.2333, "angle": 0 },
					{ "time": 0.3667, "angle": -25.2 },
					{ "time": 0.4333, "angle": 12 }
				]
			},
			"bone15": {
				"rotate": [
					{ "time": 0, "angle": 0 },
					{ "time": 0.1333, "angle": -15.6 },
					{ "time": 0.2333, "angle": 0 }
				]
			},
			"bone14": {
				"rotate": [
					{ "time": 0, "angle": 0 },
					{ "time": 0.1333, "angle": -6 },
					{ "time": 0.2333, "angle": 0 }
				]
			},
			"bone13": {
				"rotate": [
					{ "time": 0, "angle": 0 },
					{ "time": 0.1333, "angle": 343.2 },
					{ "time": 0.2333, "angle": 0 }
				]
			},
			"chibang3": {
				"rotate": [
					{ "time": 0, "angle": 0 },
					{ "time": 0.1333, "angle": -44.4 },
					{ "time": 0.2333, "angle": 0 },
					{ "time": 0.3667, "angle": -44.4 }
				],
				"scale": [
					{ "time": 0, "x": 1, "y": 1 },
					{ "time": 0.1333, "x": 0.54, "y": 1 },
					{ "time": 0.2333, "x": 1, "y": 1 },
					{ "time": 0.3667, "x": 0.54, "y": 1 }
				],
				"shear": [
					{ "time": 0, "x": 0, "y": 0 },
					{ "time": 0.1333, "x": -44.4, "y": 12 },
					{ "time": 0.2333, "x": 0, "y": 0 },
					{ "time": 0.3667, "x": -44.4, "y": 12 }
				]
			},
			"bone16": {
				"rotate": [
					{ "time": 0, "angle": 0 },
					{ "time": 0.1333, "angle": -32.4 },
					{ "time": 0.2333, "angle": 0 },
					{ "time": 0.3667, "angle": -32.4 }
				],
				"scale": [
					{ "time": 0, "x": 1, "y": 1 },
					{ "time": 0.1333, "x": 0.9, "y": 1 },
					{ "time": 0.2333, "x": 1, "y": 1 },
					{ "time": 0.3667, "x": 0.9, "y": 1 }
				],
				"shear": [
					{ "time": 0, "x": 0, "y": 0 },
					{ "time": 0.1333, "x": -72, "y": -16.8 },
					{ "time": 0.2333, "x": 0, "y": 0 },
					{ "time": 0.3667, "x": -72, "y": -16.8 }
				]
			},
			"chibang4": {
				"rotate": [
					{ "time": 0, "angle": 0 },
					{ "time": 0.1333, "angle": 25.2 },
					{ "time": 0.2333, "angle": 0 },
					{ "time": 0.3667, "angle": 25.2 }
				],
				"scale": [
					{ "time": 0, "x": 1, "y": 1 },
					{ "time": 0.1333, "x": 0.36, "y": 1 },
					{ "time": 0.2333, "x": 1, "y": 1 },
					{ "time": 0.3667, "x": 0.36, "y": 1 }
				],
				"shear": [
					{ "time": 0, "x": 0, "y": 0 },
					{ "time": 0.1333, "x": 8.4, "y": -58.8 },
					{ "time": 0.2333, "x": 0, "y": 0 },
					{ "time": 0.3667, "x": 8.4, "y": -58.8 }
				]
			},
			"bone17": {
				"rotate": [
					{ "time": 0, "angle": 0 },
					{ "time": 0.1333, "angle": -12 },
					{ "time": 0.2333, "angle": 0 },
					{ "time": 0.3667, "angle": -12 }
				],
				"scale": [
					{ "time": 0, "x": 1, "y": 1 },
					{ "time": 0.1333, "x": 0.5, "y": 1 },
					{ "time": 0.2333, "x": 1, "y": 1 },
					{ "time": 0.3667, "x": 0.5, "y": 1 }
				],
				"shear": [
					{ "time": 0, "x": 0, "y": 0 },
					{ "time": 0.1333, "x": 0, "y": -68.4 },
					{ "time": 0.2333, "x": 0, "y": 0 },
					{ "time": 0.3667, "x": 0, "y": -68.4 }
				]
			}
		},
		"paths": {
			"feixing_2": {
				"position": [
					{ "time": 0 },
					{ "time": 0.3667, "position": 1 }
				]
			}
		}
	},
	"animation4": {
		"slots": {
			"hongheidazhan_fzjian_01": {
				"color": [
					{ "time": 0, "color": "ffffffff", "curve": "stepped" },
					{ "time": 0.7333, "color": "ffffffff" },
					{ "time": 1.1333, "color": "ffffff00" }
				],
				"attachment": [
					{ "time": 0, "name": "hongheidazhan_fzjian_01" },
					{ "time": 0.0667, "name": "hongheidazhan_fzjian_02" },
					{ "time": 0.1333, "name": "hongheidazhan_fzjian_03" },
					{ "time": 0.2333, "name": "hongheidazhan_fzjian_04" },
					{ "time": 0.3, "name": "hongheidazhan_fzjian_05" },
					{ "time": 0.4, "name": "hongheidazhan_fzjian_06" },
					{ "time": 0.5, "name": "hongheidazhan_fzjian_07" },
					{ "time": 0.5333, "name": "hongheidazhan_fzjian_08" },
					{ "time": 0.6333, "name": "hongheidazhan_fzjian_07" },
					{ "time": 0.7333, "name": "hongheidazhan_fzjian_06" },
					{ "time": 0.8, "name": "hongheidazhan_fzjian_05" },
					{ "time": 0.9, "name": "hongheidazhan_fzjian_04" },
					{ "time": 0.9667, "name": "hongheidazhan_fzjian_03" },
					{ "time": 1.0333, "name": "hongheidazhan_fzjian_02" },
					{ "time": 1.1333, "name": "hongheidazhan_fzjian_01" }
				]
			},
			"hongheidazhan_shuijing2": {
				"color": [
					{ "time": 0.0333, "color": "ffffff00" }
				]
			},
			"hongheidazhan_wuya2": {
				"color": [
					{ "time": 0.0333, "color": "ffffff00" }
				]
			},
			"hongheidazhan_wuya_chibang3": {
				"color": [
					{ "time": 0.0333, "color": "ffffff00" }
				]
			},
			"hongheidazhan_wuya_chibang4": {
				"color": [
					{ "time": 0.0333, "color": "ffffff00" }
				]
			},
			"root2": {
				"color": [
					{ "time": 0.4667, "color": "ffffffff" },
					{ "time": 0.9, "color": "ffffff00" }
				],
				"attachment": [
					{ "time": 0.4333, "name": null },
					{ "time": 0.4667, "name": "hongheidazhan_fzjian_08" }
				]
			}
		},
		"bones": {
			"fazhang_glow4": {
				"scale": [
					{ "time": 0.4667, "x": 1, "y": 1 },
					{ "time": 0.9, "x": 1.25, "y": 1.25 }
				]
			}
		}
	}
}
}