﻿info face="黑体" size=32 bold=0 italic=0 charset="" unicode=1 stretchH=100 smooth=1 aa=1 padding=0,0,0,0 spacing=1,1 outline=0
common lineHeight=33 base=28 scaleW=240 scaleH=240 pages=1 packed=0 alphaChnl=0 redChnl=0 greenChnl=0 blueChnl=0
page id=0 file="nz_zt.png"
chars count=15
char id=42   x=129   y=120   width=38    height=59    xoffset=0     yoffset=0     xadvance=38    page=0  chnl=15
char id=46   x=218   y=60    width=19    height=59    xoffset=0     yoffset=0     xadvance=19    page=0  chnl=15
char id=48   x=132   y=60    width=42    height=59    xoffset=0     yoffset=0     xadvance=42    page=0  chnl=15
char id=49   x=168   y=120   width=28    height=59    xoffset=0     yoffset=0     xadvance=28    page=0  chnl=15
char id=50   x=0     y=60    width=43    height=59    xoffset=0     yoffset=0     xadvance=43    page=0  chnl=15
char id=51   x=175   y=60    width=42    height=59    xoffset=0     yoffset=0     xadvance=42    page=0  chnl=15
char id=52   x=186   y=0     width=44    height=59    xoffset=0     yoffset=0     xadvance=44    page=0  chnl=15
char id=53   x=0     y=120   width=42    height=59    xoffset=0     yoffset=0     xadvance=42    page=0  chnl=15
char id=54   x=43    y=120   width=42    height=59    xoffset=0     yoffset=0     xadvance=42    page=0  chnl=15
char id=55   x=44    y=60    width=43    height=59    xoffset=0     yoffset=0     xadvance=43    page=0  chnl=15
char id=56   x=88    y=60    width=43    height=59    xoffset=0     yoffset=0     xadvance=43    page=0  chnl=15
char id=57   x=86    y=120   width=42    height=59    xoffset=0     yoffset=0     xadvance=42    page=0  chnl=15
char id=19975 x=0     y=0     width=61    height=59    xoffset=0     yoffset=0     xadvance=61    page=0  chnl=15
char id=20159 x=62    y=0     width=61    height=59    xoffset=0     yoffset=0     xadvance=61    page=0  chnl=15
char id=20493 x=124   y=0     width=61    height=59    xoffset=0     yoffset=0     xadvance=61    page=0  chnl=15
