info face="Arial" size=10 bold=0 italic=0 charset="" unicode=0 stretchH=100 smooth=1 aa=1 padding=0,0,0,0 spacing=2,2
common lineHeight=55 base=10 scaleW=677 scaleH=55 pages=1 packed=0
page id=0 file="rc_num.png"
chars count=16
char id=52 x=0 y=0 width=38 height=55 xoffset=0 yoffset=0 xadvance=26 page=0 chnl=0 page=0 letter="4"
char id=53 x=38 y=0 width=37 height=55 xoffset=0 yoffset=0 xadvance=25 page=0 chnl=0 page=0 letter="5"
char id=54 x=75 y=0 width=38 height=55 xoffset=0 yoffset=0 xadvance=26 page=0 chnl=0 page=0 letter="6"
char id=55 x=113 y=0 width=37 height=55 xoffset=0 yoffset=0 xadvance=25 page=0 chnl=0 page=0 letter="7"
char id=56 x=150 y=0 width=38 height=55 xoffset=0 yoffset=0 xadvance=26 page=0 chnl=0 page=0 letter="8"
char id=46 x=188 y=0 width=25 height=55 xoffset=0 yoffset=0 xadvance=13 page=0 chnl=0 page=0 letter="."
char id=22330 x=213 y=0 width=54 height=55 xoffset=0 yoffset=0 xadvance=42 page=0 chnl=0 page=0 letter="场"
char id=20837 x=267 y=0 width=54 height=55 xoffset=0 yoffset=0 xadvance=42 page=0 chnl=0 page=0 letter="入"
char id=20307 x=321 y=0 width=54 height=55 xoffset=0 yoffset=0 xadvance=42 page=0 chnl=0 page=0 letter="体"
char id=19975 x=375 y=0 width=54 height=55 xoffset=0 yoffset=0 xadvance=42 page=0 chnl=0 page=0 letter="万"
char id=39564 x=429 y=0 width=54 height=55 xoffset=0 yoffset=0 xadvance=42 page=0 chnl=0 page=0 letter="验"
char id=48 x=483 y=0 width=38 height=55 xoffset=0 yoffset=0 xadvance=26 page=0 chnl=0 page=0 letter="0"
char id=49 x=521 y=0 width=28 height=55 xoffset=0 yoffset=0 xadvance=16 page=0 chnl=0 page=0 letter="1"
char id=50 x=549 y=0 width=37 height=55 xoffset=0 yoffset=0 xadvance=25 page=0 chnl=0 page=0 letter="2"
char id=51 x=586 y=0 width=37 height=55 xoffset=0 yoffset=0 xadvance=25 page=0 chnl=0 page=0 letter="3"
char id=32 x=623 y=0 width=54 height=55 xoffset=0 yoffset=0 xadvance=42 page=0 chnl=0 page=0 letter="space"