info face="Hiragino Sans GB W6" size=-23 bold=0 italic=0 charset="" unicode=1 stretchH=100 smooth=1 aa=1 padding=4,4,4,4 spacing=1,1 outline=0
common lineHeight=28 base=23 scaleW=256 scaleH=256 pages=1 packed=0 alphaChnl=1 redChnl=0 greenChnl=0 blueChnl=0
page id=0 file="chouma_feiqing2bei_light.png"
chars count=11
char id=46   x=229   y=0     width=12    height=12    xoffset=-2    yoffset=15    xadvance=6     page=0  chnl=15
char id=48   x=120   y=0     width=22    height=26    xoffset=-3    yoffset=1     xadvance=16    page=0  chnl=15
char id=49   x=212   y=0     width=16    height=26    xoffset=-1    yoffset=1     xadvance=16    page=0  chnl=15
char id=50   x=0     y=0     width=23    height=27    xoffset=-3    yoffset=1     xadvance=16    page=0  chnl=15
char id=51   x=24    y=0     width=23    height=27    xoffset=-4    yoffset=0     xadvance=16    page=0  chnl=15
char id=52   x=94    y=0     width=25    height=26    xoffset=-4    yoffset=1     xadvance=16    page=0  chnl=15
char id=53   x=143   y=0     width=22    height=26    xoffset=-3    yoffset=1     xadvance=16    page=0  chnl=15
char id=54   x=166   y=0     width=22    height=26    xoffset=-3    yoffset=1     xadvance=16    page=0  chnl=15
char id=55   x=48    y=0     width=22    height=27    xoffset=-3    yoffset=0     xadvance=16    page=0  chnl=15
char id=56   x=189   y=0     width=22    height=26    xoffset=-3    yoffset=1     xadvance=16    page=0  chnl=15
char id=57   x=71    y=0     width=22    height=27    xoffset=-3    yoffset=0     xadvance=16    page=0  chnl=15
