info face="Noto Sans S Chinese Medium" size=-28 bold=0 italic=0 charset="" unicode=1 stretchH=100 smooth=1 aa=1 padding=4,4,4,4 spacing=1,1 outline=0
common lineHeight=40 base=31 scaleW=256 scaleH=256 pages=1 packed=0 alphaChnl=1 redChnl=0 greenChnl=0 blueChnl=0
page id=0 file="num_lose.png"
chars count=14
char id=43   x=21    y=34    width=22    height=23    xoffset=-3    yoffset=10    xadvance=16    page=0  chnl=15
char id=45   x=58    y=30    width=16    height=11    xoffset=-2    yoffset=18    xadvance=10    page=0  chnl=15
char id=46   x=44    y=30    width=13    height=13    xoffset=-2    yoffset=22    xadvance=8     page=0  chnl=15
char id=48   x=60    y=0     width=22    height=29    xoffset=-3    yoffset=6     xadvance=16    page=0  chnl=15
char id=49   x=0     y=34    width=20    height=29    xoffset=-2    yoffset=6     xadvance=16    page=0  chnl=15
char id=50   x=83    y=0     width=22    height=29    xoffset=-4    yoffset=6     xadvance=16    page=0  chnl=15
char id=51   x=106   y=0     width=22    height=29    xoffset=-4    yoffset=6     xadvance=16    page=0  chnl=15
char id=52   x=36    y=0     width=23    height=29    xoffset=-4    yoffset=6     xadvance=16    page=0  chnl=15
char id=53   x=129   y=0     width=22    height=29    xoffset=-4    yoffset=6     xadvance=16    page=0  chnl=15
char id=54   x=152   y=0     width=22    height=29    xoffset=-3    yoffset=6     xadvance=16    page=0  chnl=15
char id=55   x=175   y=0     width=22    height=29    xoffset=-2    yoffset=6     xadvance=16    page=0  chnl=15
char id=56   x=198   y=0     width=22    height=29    xoffset=-3    yoffset=6     xadvance=16    page=0  chnl=15
char id=57   x=221   y=0     width=21    height=29    xoffset=-3    yoffset=6     xadvance=16    page=0  chnl=15
char id=19975 x=0     y=0     width=35    height=33    xoffset=-4    yoffset=5     xadvance=28    page=0  chnl=15
