info face="Arial" size=10 bold=0 italic=0 charset="" unicode=0 stretchH=100 smooth=1 aa=1 padding=0,0,0,0 spacing=2,2
common lineHeight=39 base=10 scaleW=284 scaleH=39 pages=1 packed=0
page id=0 file="sign_ok_add_gold.png"
chars count=12
char id=57 x=0 y=0 width=23 height=39 xoffset=0 yoffset=0 xadvance=23 page=0 chnl=0 page=0 letter="9"
char id=43 x=23 y=0 width=27 height=39 xoffset=0 yoffset=0 xadvance=27 page=0 chnl=0 page=0 letter="+"
char id=48 x=50 y=0 width=25 height=39 xoffset=0 yoffset=0 xadvance=25 page=0 chnl=0 page=0 letter="0"
char id=49 x=75 y=0 width=15 height=39 xoffset=0 yoffset=0 xadvance=17 page=0 chnl=0 page=0 letter="1"
char id=50 x=90 y=0 width=23 height=39 xoffset=0 yoffset=0 xadvance=23 page=0 chnl=0 page=0 letter="2"
char id=51 x=113 y=0 width=24 height=39 xoffset=0 yoffset=0 xadvance=24 page=0 chnl=0 page=0 letter="3"
char id=52 x=137 y=0 width=26 height=39 xoffset=0 yoffset=0 xadvance=26 page=0 chnl=0 page=0 letter="4"
char id=53 x=163 y=0 width=24 height=39 xoffset=0 yoffset=0 xadvance=24 page=0 chnl=0 page=0 letter="5"
char id=54 x=187 y=0 width=23 height=39 xoffset=0 yoffset=0 xadvance=23 page=0 chnl=0 page=0 letter="6"
char id=55 x=210 y=0 width=24 height=39 xoffset=0 yoffset=0 xadvance=24 page=0 chnl=0 page=0 letter="7"
char id=56 x=234 y=0 width=23 height=39 xoffset=0 yoffset=0 xadvance=23 page=0 chnl=0 page=0 letter="8"
char id=32 x=257 y=0 width=27 height=39 xoffset=0 yoffset=0 xadvance=27 page=0 chnl=0 page=0 letter="space"