info face="Arial" size=10 bold=0 italic=0 charset="" unicode=0 stretchH=100 smooth=1 aa=1 padding=0,0,0,0 spacing=2,2
common lineHeight=41 base=10 scaleW=394 scaleH=41 pages=1 packed=0
page id=0 file="zq_dq_01.png"
chars count=12
char id=19975 x=0 y=0 width=51 height=41 xoffset=0 yoffset=0 xadvance=46 page=0 chnl=0 page=0 letter="万"
char id=48 x=51 y=0 width=30 height=41 xoffset=0 yoffset=0 xadvance=25 page=0 chnl=0 page=0 letter="0"
char id=49 x=81 y=0 width=22 height=41 xoffset=0 yoffset=0 xadvance=17 page=0 chnl=0 page=0 letter="1"
char id=50 x=103 y=0 width=31 height=41 xoffset=0 yoffset=0 xadvance=26 page=0 chnl=0 page=0 letter="2"
char id=51 x=134 y=0 width=29 height=41 xoffset=0 yoffset=0 xadvance=24 page=0 chnl=0 page=0 letter="3"
char id=52 x=163 y=0 width=32 height=41 xoffset=0 yoffset=0 xadvance=27 page=0 chnl=0 page=0 letter="4"
char id=53 x=195 y=0 width=30 height=41 xoffset=0 yoffset=0 xadvance=25 page=0 chnl=0 page=0 letter="5"
char id=54 x=225 y=0 width=30 height=41 xoffset=0 yoffset=0 xadvance=25 page=0 chnl=0 page=0 letter="6"
char id=55 x=255 y=0 width=29 height=41 xoffset=0 yoffset=0 xadvance=24 page=0 chnl=0 page=0 letter="7"
char id=56 x=284 y=0 width=30 height=41 xoffset=0 yoffset=0 xadvance=25 page=0 chnl=0 page=0 letter="8"
char id=57 x=314 y=0 width=29 height=41 xoffset=0 yoffset=0 xadvance=24 page=0 chnl=0 page=0 letter="9"
char id=32 x=343 y=0 width=51 height=41 xoffset=0 yoffset=0 xadvance=46 page=0 chnl=0 page=0 letter="space"