info face="Arial" size=10 bold=0 italic=0 charset="" unicode=0 stretchH=100 smooth=1 aa=1 padding=0,0,0,0 spacing=2,2
common lineHeight=50 base=10 scaleW=434 scaleH=50 pages=1 packed=0
page id=0 file="cm_lan.png"
chars count=13
char id=48 x=0 y=0 width=33 height=50 xoffset=0 yoffset=0 xadvance=31 page=0 chnl=0 page=0 letter="0"
char id=49 x=33 y=0 width=18 height=50 xoffset=0 yoffset=0 xadvance=16 page=0 chnl=0 page=0 letter="1"
char id=50 x=51 y=0 width=29 height=50 xoffset=0 yoffset=0 xadvance=27 page=0 chnl=0 page=0 letter="2"
char id=51 x=80 y=0 width=29 height=50 xoffset=0 yoffset=0 xadvance=27 page=0 chnl=0 page=0 letter="3"
char id=52 x=109 y=0 width=32 height=50 xoffset=0 yoffset=0 xadvance=30 page=0 chnl=0 page=0 letter="4"
char id=53 x=141 y=0 width=29 height=50 xoffset=0 yoffset=0 xadvance=27 page=0 chnl=0 page=0 letter="5"
char id=54 x=170 y=0 width=30 height=50 xoffset=0 yoffset=0 xadvance=28 page=0 chnl=0 page=0 letter="6"
char id=55 x=200 y=0 width=30 height=50 xoffset=0 yoffset=0 xadvance=28 page=0 chnl=0 page=0 letter="7"
char id=56 x=230 y=0 width=29 height=50 xoffset=0 yoffset=0 xadvance=27 page=0 chnl=0 page=0 letter="8"
char id=57 x=259 y=0 width=30 height=50 xoffset=0 yoffset=0 xadvance=28 page=0 chnl=0 page=0 letter="9"
char id=21315 x=289 y=0 width=49 height=50 xoffset=0 yoffset=0 xadvance=47 page=0 chnl=0 page=0 letter="千"
char id=19975 x=338 y=0 width=47 height=50 xoffset=0 yoffset=0 xadvance=45 page=0 chnl=0 page=0 letter="万"
char id=46 x=389 y=0 width=22 height=50 xoffset=0 yoffset=0 xadvance=18 page=0 chnl=0 page=0 letter="."
