info face="Arial" size=10 bold=0 italic=0 charset="" unicode=0 stretchH=100 smooth=1 aa=1 padding=0,0,0,0 spacing=2,2
common lineHeight=90 base=10 scaleW=1091 scaleH=90 pages=1 packed=0
page id=0 file="bjl_shu_01.png"
chars count=16
char id=32467 x=0 y=0 width=131 height=90 xoffset=0 yoffset=0 xadvance=117 page=0 chnl=0 page=0 letter="结"
char id=45 x=131 y=0 width=54 height=90 xoffset=0 yoffset=0 xadvance=40 page=0 chnl=0 page=0 letter="-"
char id=48 x=185 y=0 width=57 height=90 xoffset=0 yoffset=0 xadvance=43 page=0 chnl=0 page=0 letter="0"
char id=49 x=242 y=0 width=43 height=90 xoffset=0 yoffset=0 xadvance=29 page=0 chnl=0 page=0 letter="1"
char id=50 x=285 y=0 width=61 height=90 xoffset=0 yoffset=0 xadvance=47 page=0 chnl=0 page=0 letter="2"
char id=51 x=346 y=0 width=58 height=90 xoffset=0 yoffset=0 xadvance=44 page=0 chnl=0 page=0 letter="3"
char id=52 x=404 y=0 width=56 height=90 xoffset=0 yoffset=0 xadvance=42 page=0 chnl=0 page=0 letter="4"
char id=53 x=460 y=0 width=56 height=90 xoffset=0 yoffset=0 xadvance=42 page=0 chnl=0 page=0 letter="5"
char id=54 x=516 y=0 width=56 height=90 xoffset=0 yoffset=0 xadvance=42 page=0 chnl=0 page=0 letter="6"
char id=55 x=572 y=0 width=53 height=90 xoffset=0 yoffset=0 xadvance=39 page=0 chnl=0 page=0 letter="7"
char id=56 x=625 y=0 width=58 height=90 xoffset=0 yoffset=0 xadvance=44 page=0 chnl=0 page=0 letter="8"
char id=57 x=683 y=0 width=57 height=90 xoffset=0 yoffset=0 xadvance=43 page=0 chnl=0 page=0 letter="9"
char id=20159 x=746 y=0 width=82 height=90 xoffset=0 yoffset=0 xadvance=68 page=0 chnl=0 page=0 letter="亿"
char id=19975 x=837 y=0 width=83 height=90 xoffset=0 yoffset=0 xadvance=69 page=0 chnl=0 page=0 letter="万"
char id=44 x=924 y=0 width=36 height=90 xoffset=0 yoffset=0 xadvance=22 page=0 chnl=0 page=0 letter=","
char id=46 x=971 y=0 width=26 height=90 xoffset=0 yoffset=0 xadvance=16 page=0 chnl=0 page=0 letter="."
char id=32 x=997 y=0 width=30 height=90 xoffset=0 yoffset=0 xadvance=30 page=0 chnl=0 page=0 letter=" "
