info face="Arial" size=10 bold=0 italic=0 charset="" unicode=0 stretchH=100 smooth=1 aa=1 padding=0,0,0,0 spacing=2,2
common lineHeight=35 base=10 scaleW=290 scaleH=35 pages=1 packed=0
page id=0 file="brnn_ying_01.png"
chars count=15
char id=49 x=0 y=0 width=14 height=35 xoffset=0 yoffset=0 xadvance=11 page=0 chnl=0 page=0 letter="1"
char id=50 x=14 y=0 width=18 height=35 xoffset=0 yoffset=0 xadvance=15 page=0 chnl=0 page=0 letter="2"
char id=51 x=32 y=0 width=18 height=35 xoffset=0 yoffset=0 xadvance=15 page=0 chnl=0 page=0 letter="3"
char id=52 x=50 y=0 width=21 height=35 xoffset=0 yoffset=0 xadvance=18 page=0 chnl=0 page=0 letter="4"
char id=53 x=71 y=0 width=18 height=35 xoffset=0 yoffset=0 xadvance=15 page=0 chnl=0 page=0 letter="5"
char id=54 x=89 y=0 width=18 height=35 xoffset=0 yoffset=0 xadvance=15 page=0 chnl=0 page=0 letter="6"
char id=55 x=107 y=0 width=18 height=35 xoffset=0 yoffset=0 xadvance=15 page=0 chnl=0 page=0 letter="7"
char id=56 x=125 y=0 width=18 height=35 xoffset=0 yoffset=0 xadvance=15 page=0 chnl=0 page=0 letter="8"
char id=57 x=143 y=0 width=18 height=35 xoffset=0 yoffset=0 xadvance=15 page=0 chnl=0 page=0 letter="9"
char id=46 x=161 y=0 width=10 height=35 xoffset=0 yoffset=0 xadvance=7 page=0 chnl=0 page=0 letter="."
char id=20159 x=171 y=0 width=30 height=35 xoffset=0 yoffset=0 xadvance=27 page=0 chnl=0 page=0 letter="亿"
char id=44 x=201 y=0 width=10 height=35 xoffset=0 yoffset=0 xadvance=7 page=0 chnl=0 page=0 letter=","
char id=19975 x=211 y=0 width=29 height=35 xoffset=0 yoffset=0 xadvance=26 page=0 chnl=0 page=0 letter="万"
char id=48 x=240 y=0 width=20 height=35 xoffset=0 yoffset=0 xadvance=17 page=0 chnl=0 page=0 letter="0"
char id=32 x=260 y=0 width=30 height=35 xoffset=0 yoffset=0 xadvance=27 page=0 chnl=0 page=0 letter="space"