{"file":"game_rou_sheet-44666b62ab.png","frames":{
"Bg_MainGame_png":{"x":0,"y":0,"w":707,"h":640,"offX":0,"offY":0,"sourceW":707,"sourceH":640},
"Bg_RouletteBet_1_png":{"x":1347,"y":0,"w":633,"h":336,"offX":0,"offY":0,"sourceW":633,"sourceH":336},
"Bg_RouletteBet_2_png":{"x":709,"y":0,"w":636,"h":357,"offX":0,"offY":0,"sourceW":636,"sourceH":357},
"rou_bet_big_zh_CN_png":{"x":928,"y":489,"w":29,"h":31,"offX":1,"offY":0,"sourceW":30,"sourceH":31},
"rou_bet_black_zh_CN_png":{"x":1204,"y":386,"w":54,"h":54,"offX":0,"offY":0,"sourceW":54,"sourceH":54},
"rou_bet_dozen1_zh_CN_png":{"x":1970,"y":452,"w":59,"h":21,"offX":0,"offY":0,"sourceW":59,"sourceH":21},
"rou_bet_dozen2_zh_CN_png":{"x":1003,"y":418,"w":59,"h":21,"offX":0,"offY":0,"sourceW":59,"sourceH":21},
"rou_bet_dozen3_zh_CN_png":{"x":805,"y":488,"w":59,"h":21,"offX":0,"offY":0,"sourceW":59,"sourceH":21},
"rou_bet_even_zh_CN_png":{"x":1145,"y":492,"w":30,"h":29,"offX":1,"offY":0,"sourceW":31,"sourceH":29},
"rou_bet_french1_zh_CN_png":{"x":1970,"y":338,"w":73,"h":57,"offX":0,"offY":0,"sourceW":73,"sourceH":57},
"rou_bet_french2_zh_CN_png":{"x":905,"y":413,"w":96,"h":26,"offX":0,"offY":0,"sourceW":96,"sourceH":26},
"rou_bet_french3_zh_CN_png":{"x":1210,"y":359,"w":118,"h":25,"offX":0,"offY":0,"sourceW":118,"sourceH":26},
"rou_bet_french4_zh_CN_png":{"x":855,"y":409,"w":48,"h":57,"offX":0,"offY":0,"sourceW":48,"sourceH":57},
"rou_bet_line1_zh_CN_png":{"x":2026,"y":397,"w":17,"h":45,"offX":0,"offY":0,"sourceW":17,"sourceH":45},
"rou_bet_line2_zh_CN_png":{"x":2023,"y":141,"w":17,"h":45,"offX":0,"offY":0,"sourceW":17,"sourceH":45},
"rou_bet_line3_zh_CN_png":{"x":2023,"y":94,"w":17,"h":45,"offX":0,"offY":0,"sourceW":17,"sourceH":45},
"rou_bet_odd_zh_CN_png":{"x":1316,"y":425,"w":29,"h":32,"offX":0,"offY":0,"sourceW":29,"sourceH":32},
"rou_bet_red_zh_CN_png":{"x":1970,"y":397,"w":54,"h":53,"offX":0,"offY":0,"sourceW":54,"sourceH":53},
"rou_bet_small_zh_CN_png":{"x":1283,"y":488,"w":30,"h":30,"offX":0,"offY":0,"sourceW":31,"sourceH":30},
"rou_bet_zero_zh_CN_png":{"x":1090,"y":386,"w":55,"h":54,"offX":0,"offY":0,"sourceW":55,"sourceH":54},
"rou_bet_big_zh_TW_png":{"x":897,"y":489,"w":29,"h":31,"offX":1,"offY":0,"sourceW":30,"sourceH":31},
"rou_bet_black_zh_TW_png":{"x":1260,"y":386,"w":54,"h":54,"offX":0,"offY":0,"sourceW":54,"sourceH":54},
"rou_bet_dozen1_zh_TW_png":{"x":984,"y":470,"w":59,"h":21,"offX":0,"offY":0,"sourceW":59,"sourceH":21},
"rou_bet_dozen2_zh_TW_png":{"x":1145,"y":469,"w":59,"h":21,"offX":0,"offY":0,"sourceW":59,"sourceH":21},
"rou_bet_dozen3_zh_TW_png":{"x":1970,"y":475,"w":59,"h":21,"offX":0,"offY":0,"sourceW":59,"sourceH":21},
"rou_bet_even_zh_TW_png":{"x":1252,"y":488,"w":29,"h":32,"offX":1,"offY":0,"sourceW":30,"sourceH":32},
"rou_bet_french1_zh_TW_png":{"x":1015,"y":359,"w":73,"h":57,"offX":0,"offY":0,"sourceW":73,"sourceH":57},
"rou_bet_french2_zh_TW_png":{"x":905,"y":441,"w":96,"h":26,"offX":0,"offY":0,"sourceW":96,"sourceH":26},
"rou_bet_french3_zh_TW_png":{"x":1090,"y":359,"w":118,"h":25,"offX":0,"offY":0,"sourceW":118,"sourceH":26},
"rou_bet_french4_zh_TW_png":{"x":805,"y":409,"w":48,"h":57,"offX":0,"offY":0,"sourceW":48,"sourceH":57},
"rou_bet_line1_zh_TW_png":{"x":1177,"y":492,"w":17,"h":45,"offX":0,"offY":0,"sourceW":17,"sourceH":45},
"rou_bet_line2_zh_TW_png":{"x":2023,"y":47,"w":17,"h":45,"offX":0,"offY":0,"sourceW":17,"sourceH":45},
"rou_bet_line3_zh_TW_png":{"x":2023,"y":0,"w":17,"h":45,"offX":0,"offY":0,"sourceW":17,"sourceH":45},
"rou_bet_odd_zh_TW_png":{"x":866,"y":489,"w":29,"h":31,"offX":0,"offY":0,"sourceW":29,"sourceH":31},
"rou_bet_red_zh_TW_png":{"x":1982,"y":229,"w":55,"h":55,"offX":0,"offY":0,"sourceW":55,"sourceH":55},
"rou_bet_small_zh_TW_png":{"x":1315,"y":488,"w":30,"h":30,"offX":0,"offY":0,"sourceW":31,"sourceH":30},
"rou_bet_zero_zh_TW_png":{"x":1147,"y":386,"w":55,"h":54,"offX":0,"offY":0,"sourceW":55,"sourceH":54},
"rou_bet_big_en_US_png":{"x":1206,"y":488,"w":44,"h":24,"offX":0,"offY":0,"sourceW":44,"sourceH":24},
"rou_bet_black_en_US_png":{"x":1003,"y":442,"w":95,"h":26,"offX":0,"offY":0,"sourceW":95,"sourceH":26},
"rou_bet_dozen1_en_US_png":{"x":1237,"y":468,"w":88,"h":18,"offX":0,"offY":0,"sourceW":88,"sourceH":18},
"rou_bet_dozen2_en_US_png":{"x":805,"y":468,"w":88,"h":18,"offX":0,"offY":0,"sourceW":88,"sourceH":18},
"rou_bet_dozen3_en_US_png":{"x":895,"y":469,"w":87,"h":18,"offX":0,"offY":0,"sourceW":87,"sourceH":18},
"rou_bet_even_en_US_png":{"x":1982,"y":313,"w":59,"h":22,"offX":0,"offY":0,"sourceW":59,"sourceH":22},
"rou_bet_french1_en_US_png":{"x":917,"y":359,"w":96,"h":52,"offX":0,"offY":0,"sourceW":96,"sourceH":52},
"rou_bet_french2_en_US_png":{"x":1145,"y":442,"w":90,"h":25,"offX":0,"offY":0,"sourceW":90,"sourceH":25},
"rou_bet_french3_en_US_png":{"x":805,"y":359,"w":110,"h":48,"offX":0,"offY":0,"sourceW":110,"sourceH":48},
"rou_bet_french4_en_US_png":{"x":2023,"y":188,"w":14,"h":20,"offX":0,"offY":0,"sourceW":14,"sourceH":20},
"rou_bet_line1_en_US_png":{"x":1026,"y":496,"w":65,"h":12,"offX":0,"offY":0,"sourceW":65,"sourceH":12},
"rou_bet_line2_en_US_png":{"x":959,"y":493,"w":65,"h":12,"offX":0,"offY":0,"sourceW":65,"sourceH":12},
"rou_bet_line3_en_US_png":{"x":1970,"y":498,"w":65,"h":12,"offX":0,"offY":0,"sourceW":65,"sourceH":12},
"rou_bet_odd_en_US_png":{"x":1045,"y":470,"w":46,"h":24,"offX":0,"offY":0,"sourceW":46,"sourceH":24},
"rou_bet_red_en_US_png":{"x":1982,"y":286,"w":58,"h":25,"offX":0,"offY":0,"sourceW":58,"sourceH":25},
"rou_bet_small_en_US_png":{"x":1237,"y":442,"w":75,"h":24,"offX":0,"offY":0,"sourceW":75,"sourceH":24},
"rou_bet_zero_en_US_png":{"x":1316,"y":386,"w":26,"h":37,"offX":0,"offY":0,"sourceW":26,"sourceH":37},
"Btn_Roulette0_Press_png":{"x":1982,"y":0,"w":39,"h":227,"offX":0,"offY":0,"sourceW":39,"sourceH":227},
"Btn_RouletteC_Press_png":{"x":1100,"y":442,"w":43,"h":55,"offX":0,"offY":0,"sourceW":43,"sourceH":55},
"Btn_RouletteL1_Press_png":{"x":1826,"y":338,"w":142,"h":262,"offX":0,"offY":0,"sourceW":142,"sourceH":262},
"Btn_RouletteL2_Press_png":{"x":1587,"y":338,"w":237,"h":262,"offX":0,"offY":0,"sourceW":237,"sourceH":262},
"Btn_RouletteR1_Press_png":{"x":709,"y":359,"w":94,"h":262,"offX":0,"offY":0,"sourceW":94,"sourceH":262},
"Btn_RouletteR2_Press_png":{"x":1347,"y":338,"w":238,"h":262,"offX":0,"offY":0,"sourceW":238,"sourceH":262}}}