{
	"groups": [
		{
			"keys": "Bg_GameLobby_jpg,Bg_GameLobbyL_jpg,Bg_Main_MutilPlay_jpg,Bg_Video_jpg,locale_json,emoji_sheet_json,emoji_sheet_png,loading_sheet_json,loading_sheet_png,music_json,card_big_sheet_json,card_color_sheet_json,card_sheet_json,comon_sheet_json,game_bac_sheet_json,game_bull_sheet_json,game_card_common_sheet_json,game_dt_sheet_json,game_rou_sheet_json,game_sibo_sheet_json,game_win3_sheet_json,hall_sheet_json,road_sheet_json,table_sheet_json,sound_json",
			"name": "preload"
		}
	],
	"resources": [
		{
			"url": "assets/locale-51187da690.json",
			"type": "json",
			"name": "locale_json"
		},
		{
			"url": "assets/sound-40894ae2c3.json",
			"type": "json",
			"name": "sound_json"
		},
		{
			"url": "assets/music-df605d4ec3.json",
			"type": "json",
			"name": "music_json"
		},
		{
			"url": "assets/image/Bg_GameLobby-ae3f44a1d1.jpg",
			"type": "image",
			"name": "Bg_GameLobby_jpg"
		},
		{
			"url": "assets/image/Bg_GameLobbyL-20f631faa9.jpg",
			"type": "image",
			"name": "Bg_GameLobbyL_jpg"
		},
		{
			"url": "assets/image/Bg_Login-2146eaae24.jpg",
			"type": "image",
			"name": "Bg_Login_jpg"
		},
		{
			"url": "assets/image/Bg_Main_MutilPlay-d62b3adde8.jpg",
			"type": "image",
			"name": "Bg_Main_MutilPlay_jpg"
		},
		{
			"url": "assets/image/Bg_Video-960ae86006.jpg",
			"type": "image",
			"name": "Bg_Video_jpg"
		},
		{
			"url": "assets/mov/emoji_sheet-e5de418295.png",
			"type": "image",
			"name": "emoji_sheet_png"
		},
		{
			"url": "assets/mov/loading_sheet-f3f0ffa88e.png",
			"type": "image",
			"name": "loading_sheet_png"
		},
		{
			"url": "assets/mov/emoji_sheet-19975c6b55.json",
			"type": "json",
			"name": "emoji_sheet_json"
		},
		{
			"url": "assets/mov/loading_sheet-94f46ff00b.json",
			"type": "json",
			"name": "loading_sheet_json"
		},
		{
			"url": "assets/sheet/card_color_sheet-e9936adbb2.json",
			"type": "sheet",
			"name": "card_color_sheet_json",
			"subkeys": "B10_png,B11_png,B1_png,B2_png,B3_png,B4_png,B5_png,B6_png,B7_png,B8_png,B9_png,G10_png,G11_png,G1_png,G2_png,G3_png,G4_png,G5_png,G6_png,G7_png,G8_png,G9_png,P10_png,P11_png,P1_png,P2_png,P3_png,P4_png,P5_png,P6_png,P7_png,P8_png,P9_png,W10_png,W11_png,W1_png,W2_png,W3_png,W4_png,W5_png,W6_png,W7_png,W8_png,W9_png,Y10_png,Y11_png,Y1_png,Y2_png,Y3_png,Y4_png,Y5_png,Y6_png,Y7_png,Y8_png,Y9_png,Z-back_png"
		},
		{
			"url": "assets/sheet/comon_sheet-e80e39585d.json",
			"type": "sheet",
			"name": "comon_sheet_json",
			"subkeys": "BG_ListTitleNew_png,Bg_BetMultiPlay_png,Bg_BetVaule_png,Bg_BlackWin_png,Bg_BtnChangeFile_png,Bg_ChangeTableOff_png,Bg_ChangeTableOn_png,Bg_ChangeTable_png,Bg_GameRoom_png,Bg_Game_g_png,Bg_Game_png,Bg_GreenWin_png,Bg_HintInfo_Lobby_png,Bg_LobbyInfo_png,Bg_LoginMessage_png,Bg_MenuBG_png,Bg_ModeChange_png,Bg_RedWin_png,Bg_ResultBlue_png,Bg_ResultRed_png,Bg_TalkInput_png,Bg_UiWave_png,Bg_WatchTime_png,Btn_ArrowBG_png,Btn_BtnMenu_png,Btn_Exit_png,Btn_Face_Off_png,Btn_Face_Press_png,Btn_Face_png,Btn_HotKey_Off_png,Btn_HotKey_Press_png,Btn_HotKey_png,Btn_ListBlue_Idle_png,Btn_ListBlue_Press_png,Btn_ListChange_Idle_png,Btn_ListChange_Press_png,Btn_ListRed_Idle_png,Btn_ListRed_Press_png,Btn_ListZoom_png,Btn_Menu_NEW_png,Btn_NoCommOff_png,Btn_NormalOn_png,Btn_ReBet_Idle_png,Btn_ReBet_Press_png,Btn_Return_NEW_png,Btn_SelectTable_png,Btn_SubtitleOff_Press_png,Btn_SubtitleOff_png,Btn_SubtitleOn_Press_png,Btn_SubtitleOn_png,Btn_TalkSend_Off_png,Btn_TalkSend_png,Btn_Unable_png,Btn_Wave_Hover_png,Btn_Wave_Idle_png,Btn_cancelNew_Idle_png,Btn_cancelNew_Press_png,Btn_confirmNew_Idle_png,Btn_confirmNew_Press_png,ChipLand0_png,ChipLand1_png,ChipLand2_png,ChipLand3_png,ChipLand4_png,ChipLand5_png,ChipLand6_png,ChipLand7_png,ChipLand8_png,ChipLand9_png,Effect_Chip_png,GameBtn_ChangeTable_png,GameBtn_Info_png,GameBtn_Net_png,GameBtn_Present_png,GameBtn_Score_png,GameBtn_Talk_png,GameBtn_VideoClose_png,GameBtn_VideoPlay_png,GameBtn_ZoomIn_png,GameBtn_ZoomOut_png,Icon_Arrow_ZoomDown_png,Icon_Arrow_png,Icon_BetAuto_png,Icon_Cn_png,Icon_ES_png,Icon_En_png,Icon_Es_png,Icon_Guide_Idle_png,Icon_Hk_png,Icon_Id_png,Icon_InfoBet_png,Icon_Info_png,Icon_Jp_png,Icon_Kr_png,Icon_Langure_Idle_png,Icon_Limit_png,Icon_Live_png,Icon_LoginOut_Idle_png,Icon_Maintain_png,Icon_Music_png,Icon_My_png,Icon_NameChange_png,Icon_OddInfo_png,Icon_PowerSwitch_png,Icon_Ratation_Idle_png,Icon_Record_Idle_png,Icon_Result_png,Icon_Road_p_png,Icon_Road_png,Icon_Setting_p_png,Icon_Setting_png,Icon_Shuffle_png,Icon_SoundSwitch_png,Icon_System_Idle_png,Icon_Talk_png,Icon_Th_png,Icon_Time_png,Icon_Updata_png,Icon_VideoSwitch_png,Icon_Vn_png,Icon_WatchTimeHand_png,Icon_WatchTime_png,Ivon_GameReplay_png,Panel_BgBaccaratBet_g_png,Panel_BgBaccaratBet_png,Rotaion_Auto_png,Rotaion_Landscape_png,Rotaion_Portrait_png,Rotation_Idle_png,Rotation_Press_png,Setting_VoiceBG_png,UIBG_Message_png,bacResultBanker_png,bacResultPlayer_png,bacResultTie_png,change_1_p_png,change_1_png,change_2_p_png,change_2_png,game_nobet_png,goodRoad10_png,goodRoad1_png,goodRoad2_png,goodRoad3_png,goodRoad4_png,goodRoad5_png,goodRoad6_png,goodRoad7_png,goodRoad8_png,goodRoad9_png,line_result_png,multi_bet_panel_png,multi_desk_bottom_png,multi_desk_name_png,multi_desk_top_png,multi_info_panel_png,rb_ResultBlack_Win_png,rb_ResultRed_Win_png,road_bg_p_png,road_set_10_png,road_set_1_png,road_set_2_png,road_set_3_png,road_set_4_png,road_set_5_png,road_set_6_png,road_set_7_png,road_set_8_png,road_set_9_png,road_set_bg_png,road_set_no_png,road_set_select_png,setting_arrow_png,setting_line_png,shadow_board_png,toggle_off_p_png,toggle_off_png,toggle_on_p_png,toggle_on_png,top-bg_png,white_img_png"
		},
		{
			"url": "assets/sheet/card_sheet-07ff3b1c7a.json",
			"type": "sheet",
			"name": "card_sheet_json",
			"subkeys": "cardC10_png,cardC11_png,cardC12_png,cardC13_png,cardC1_png,cardC2_png,cardC3_png,cardC4_png,cardC5_png,cardC6_png,cardC7_png,cardC8_png,cardC9_png,cardD10_png,cardD11_png,cardD12_png,cardD13_png,cardD1_png,cardD2_png,cardD3_png,cardD4_png,cardD5_png,cardD6_png,cardD7_png,cardD8_png,cardD9_png,cardH10_png,cardH11_png,cardH12_png,cardH13_png,cardH1_png,cardH2_png,cardH3_png,cardH4_png,cardH5_png,cardH6_png,cardH7_png,cardH8_png,cardH9_png,cardS10_png,cardS11_png,cardS12_png,cardS13_png,cardS1_png,cardS2_png,cardS3_png,cardS4_png,cardS5_png,cardS6_png,cardS7_png,cardS8_png,cardS9_png,poker-back_png"
		},
		{
			"url": "assets/sheet/card_big_sheet-97534d60fa.json",
			"type": "sheet",
			"name": "card_big_sheet_json",
			"subkeys": "cardC10_big_png,cardC11_big_png,cardC12_big_png,cardC13_big_png,cardC1_big_png,cardC2_big_png,cardC3_big_png,cardC4_big_png,cardC5_big_png,cardC6_big_png,cardC7_big_png,cardC8_big_png,cardC9_big_png,cardD10_big_png,cardD11_big_png,cardD12_big_png,cardD13_big_png,cardD1_big_png,cardD2_big_png,cardD3_big_png,cardD4_big_png,cardD5_big_png,cardD6_big_png,cardD7_big_png,cardD8_big_png,cardD9_big_png,cardH10_big_png,cardH11_big_png,cardH12_big_png,cardH13_big_png,cardH1_big_png,cardH2_big_png,cardH3_big_png,cardH4_big_png,cardH5_big_png,cardH6_big_png,cardH7_big_png,cardH8_big_png,cardH9_big_png,cardS10_big_png,cardS11_big_png,cardS12_big_png,cardS13_big_png,cardS1_big_png,cardS2_big_png,cardS3_big_png,cardS4_big_png,cardS5_big_png,cardS6_big_png,cardS7_big_png,cardS8_big_png,cardS9_big_png,poker-back_big_png"
		},
		{
			"url": "assets/sheet/game_dt_sheet-71be4732ad.json",
			"type": "sheet",
			"name": "game_dt_sheet_json",
			"subkeys": "dt_bet_10_en_US_L_png,dt_bet_10_en_US_png,dt_bet_10_zh_CN_L_png,dt_bet_10_zh_CN_png,dt_bet_10_zh_TW_L_png,dt_bet_10_zh_TW_png,dt_bet_11_en_US_L_png,dt_bet_11_en_US_png,dt_bet_11_zh_CN_L_png,dt_bet_11_zh_CN_png,dt_bet_11_zh_TW_L_png,dt_bet_11_zh_TW_png,dt_bet_1_en_US_L_png,dt_bet_1_en_US_png,dt_bet_1_zh_CN_L_png,dt_bet_1_zh_CN_png,dt_bet_1_zh_TW_L_png,dt_bet_1_zh_TW_png,dt_bet_2_en_US_L_png,dt_bet_2_en_US_png,dt_bet_2_zh_CN_L_png,dt_bet_2_zh_CN_png,dt_bet_2_zh_TW_L_png,dt_bet_2_zh_TW_png,dt_bet_3_en_US_L_png,dt_bet_3_en_US_png,dt_bet_3_zh_CN_L_png,dt_bet_3_zh_CN_png,dt_bet_3_zh_TW_L_png,dt_bet_3_zh_TW_png,dt_bet_4_en_US_L_png,dt_bet_4_en_US_png,dt_bet_4_zh_CN_L_png,dt_bet_4_zh_CN_png,dt_bet_4_zh_TW_L_png,dt_bet_4_zh_TW_png,dt_bet_5_en_US_L_png,dt_bet_5_en_US_png,dt_bet_5_zh_CN_L_png,dt_bet_5_zh_CN_png,dt_bet_5_zh_TW_L_png,dt_bet_5_zh_TW_png,dt_bet_6_en_US_L_png,dt_bet_6_en_US_png,dt_bet_6_zh_CN_L_png,dt_bet_6_zh_CN_png,dt_bet_6_zh_TW_L_png,dt_bet_6_zh_TW_png,dt_bet_7_en_US_L_png,dt_bet_7_en_US_png,dt_bet_7_zh_CN_L_png,dt_bet_7_zh_CN_png,dt_bet_7_zh_TW_L_png,dt_bet_7_zh_TW_png,dt_bet_8_en_US_L_png,dt_bet_8_en_US_png,dt_bet_8_zh_CN_L_png,dt_bet_8_zh_CN_png,dt_bet_8_zh_TW_L_png,dt_bet_8_zh_TW_png,dt_bet_9_en_US_L_png,dt_bet_9_en_US_png,dt_bet_9_zh_CN_L_png,dt_bet_9_zh_CN_png,dt_bet_9_zh_TW_L_png,dt_bet_9_zh_TW_png"
		},
		{
			"url": "assets/sheet/game_bac_sheet-a72a7c2660.json",
			"type": "sheet",
			"name": "game_bac_sheet_json",
			"subkeys": "Bg_GiftSelect_png,Bg_Gift_png,Bg_Price_png,Btn_Cut_png,Btn_HistoryRecord_Press_png,Btn_HistoryRecord_png,Btn_Increase_png,Btn_PageArr_png,Icon_PresentWhite_png,bac_bet1_en_US_L_png,bac_bet1_en_US_png,bac_bet1_zh_CN_L_png,bac_bet1_zh_CN_png,bac_bet1_zh_TW_L_png,bac_bet1_zh_TW_png,bac_bet2_en_US_L_png,bac_bet2_en_US_png,bac_bet2_zh_CN_L_png,bac_bet2_zh_CN_png,bac_bet2_zh_TW_L_png,bac_bet2_zh_TW_png,bac_bet3_en_US_L_png,bac_bet3_en_US_png,bac_bet3_zh_CN_L_png,bac_bet3_zh_CN_png,bac_bet3_zh_TW_L_png,bac_bet3_zh_TW_png,bac_bet4_en_US_L_png,bac_bet4_en_US_png,bac_bet4_zh_CN_L_png,bac_bet4_zh_CN_png,bac_bet4_zh_TW_L_png,bac_bet4_zh_TW_png,bac_bet5_en_US_L_png,bac_bet5_en_US_png,bac_bet5_zh_CN_L_png,bac_bet5_zh_CN_png,bac_bet5_zh_TW_L_png,bac_bet5_zh_TW_png,bac_bet6_en_US_L_png,bac_bet6_en_US_png,bac_bet6_zh_CN_L_png,bac_bet6_zh_CN_png,bac_bet6_zh_TW_L_png,bac_bet6_zh_TW_png,bac_bet7_en_US_L_png,bac_bet7_en_US_png,bac_bet7_zh_CN_L_png,bac_bet7_zh_CN_png,bac_bet7_zh_TW_L_png,bac_bet7_zh_TW_png,bac_bet8_en_US_L_png,bac_bet8_en_US_png,bac_bet8_zh_CN_L_png,bac_bet8_zh_CN_png,bac_bet8_zh_TW_L_png,bac_bet8_zh_TW_png,bac_bet9_en_US_L_png,bac_bet9_en_US_png,bac_bet9_zh_CN_L_png,bac_bet9_zh_CN_png,bac_bet9_zh_TW_L_png,bac_bet9_zh_TW_png,colbac_bet4_en_US_L_png,colbac_bet4_en_US_png,colbac_bet4_zh_CN_L_png,colbac_bet4_zh_CN_png,colbac_bet4_zh_TW_L_png,colbac_bet4_zh_TW_png,colbac_bet5_en_US_L_png,colbac_bet5_en_US_png,colbac_bet5_zh_CN_L_png,colbac_bet5_zh_CN_png,colbac_bet5_zh_TW_L_png,colbac_bet5_zh_TW_png,colbac_bet6_en_US_L_png,colbac_bet6_en_US_png,colbac_bet6_zh_CN_L_png,colbac_bet6_zh_CN_png,colbac_bet6_zh_TW_L_png,colbac_bet6_zh_TW_png,colbac_bet7_en_US_L_png,colbac_bet7_en_US_png,colbac_bet7_zh_CN_L_png,colbac_bet7_zh_CN_png,colbac_bet7_zh_TW_L_png,colbac_bet7_zh_TW_png,finger_png,gift1_png,gift2_png,gift3_png,gift4_png,gift5_png,gift6_png,gift7_png,gift8_png,road_bet_en_US_png,road_bet_zh_CN_png,road_bet_zh_TW_png,road_btn_p_png,road_btn_p_press_png,road_cancel_off_png,road_cancel_png,road_cancel_press_png,road_close_png,road_comfirm_off_png,road_comfirm_png,road_comfirm_press_png,road_hint_png,road_icon_png,road_item_p_png,road_item_png,road_item_press_png,road_r10_png,road_r1_png,road_r2_png,road_r3_png,road_r4_png,road_r5_png,road_r6_png,road_r7_png,road_r8_png,road_r9_png,road_time_png,road_timer_bg_png,road_timer_light_png,scroe_a_png,scroe_b_png,scroe_icon_png"
		},
		{
			"url": "assets/sheet/game_sibo_sheet-752e896294.json",
			"type": "sheet",
			"name": "game_sibo_sheet_json",
			"subkeys": "Bg_TableDice1_png,Bg_TableDice_png,WinSciboMask_1_png,WinSciboMask_2_png,WinSciboMask_3_png,WinSciboMask_4_png,WinSciboMask_5_png,WinSciboMask_6_png,WinSciboMask_7_png,WinSciboMask_8_png,WinSciboMask_9_png,WinSciboMask_Down_1_png,WinSciboMask_Down_2_png,WinSciboMask_Middle1_1_png,WinSciboMask_Middle1_2_png,WinSciboMask_Middle1_3_png,WinSciboMask_Middle1_4_png,WinSciboMask_Middle1_5_png,WinSciboMask_Middle1_6_png,WinSciboMask_Middle2_1_png,WinSciboMask_Middle2_2_png,WinSciboMask_Middle2_3_png,WinSciboMask_Middle2_4_png,WinSciboMask_Middle2_5_png,WinSciboMask_Middle2_6_png,WinSciboMask_Middle2_7_png,WinSciboMask_Up_1_png,WinSciboMask_Up_2_png,WinSciboMask_Up_3_png,sibo_betArea_png,sibo_bet_dice_1_png,sibo_bet_dice_2_png,sibo_bet_dice_3_png,sibo_bet_dice_4_png,sibo_bet_dice_5_png,sibo_bet_dice_6_png,sibo_big_en_US_L_png,sibo_big_en_US_png,sibo_big_zh_CN_L_png,sibo_big_zh_CN_png,sibo_big_zh_TW_L_png,sibo_big_zh_TW_png,sibo_bottom_tip_en_US_L_png,sibo_bottom_tip_zh_CN_L_png,sibo_bottom_tip_zh_TW_L_png,sibo_even_en_US_L_png,sibo_even_en_US_png,sibo_even_zh_CN_L_png,sibo_even_zh_CN_png,sibo_even_zh_TW_L_png,sibo_even_zh_TW_png,sibo_odd_en_US_L_png,sibo_odd_en_US_png,sibo_odd_zh_CN_L_png,sibo_odd_zh_CN_png,sibo_odd_zh_TW_L_png,sibo_odd_zh_TW_png,sibo_small_en_US_L_png,sibo_small_en_US_png,sibo_small_zh_CN_L_png,sibo_small_zh_CN_png,sibo_small_zh_TW_L_png,sibo_small_zh_TW_png,sibo_triple_en_US_png,sibo_triple_zh_CN_png,sibo_triple_zh_TW_png"
		},
		{
			"url": "assets/sheet/game_rou_sheet-57b047b816.json",
			"type": "sheet",
			"name": "game_rou_sheet_json",
			"subkeys": "Bg_MainGame_png,Bg_RouletteBet_1_png,Bg_RouletteBet_2_png,Btn_Roulette0_Press_png,Btn_RouletteC_Press_png,Btn_RouletteL1_Press_png,Btn_RouletteL2_Press_png,Btn_RouletteR1_Press_png,Btn_RouletteR2_Press_png,rou_bet_big_en_US_png,rou_bet_big_zh_CN_png,rou_bet_big_zh_TW_png,rou_bet_black_en_US_png,rou_bet_black_zh_CN_png,rou_bet_black_zh_TW_png,rou_bet_dozen1_en_US_png,rou_bet_dozen1_zh_CN_png,rou_bet_dozen1_zh_TW_png,rou_bet_dozen2_en_US_png,rou_bet_dozen2_zh_CN_png,rou_bet_dozen2_zh_TW_png,rou_bet_dozen3_en_US_png,rou_bet_dozen3_zh_CN_png,rou_bet_dozen3_zh_TW_png,rou_bet_even_en_US_png,rou_bet_even_zh_CN_png,rou_bet_even_zh_TW_png,rou_bet_french1_en_US_png,rou_bet_french1_zh_CN_png,rou_bet_french1_zh_TW_png,rou_bet_french2_en_US_png,rou_bet_french2_zh_CN_png,rou_bet_french2_zh_TW_png,rou_bet_french3_en_US_png,rou_bet_french3_zh_CN_png,rou_bet_french3_zh_TW_png,rou_bet_french4_en_US_png,rou_bet_french4_zh_CN_png,rou_bet_french4_zh_TW_png,rou_bet_line1_en_US_png,rou_bet_line1_zh_CN_png,rou_bet_line1_zh_TW_png,rou_bet_line2_en_US_png,rou_bet_line2_zh_CN_png,rou_bet_line2_zh_TW_png,rou_bet_line3_en_US_png,rou_bet_line3_zh_CN_png,rou_bet_line3_zh_TW_png,rou_bet_odd_en_US_png,rou_bet_odd_zh_CN_png,rou_bet_odd_zh_TW_png,rou_bet_red_en_US_png,rou_bet_red_zh_CN_png,rou_bet_red_zh_TW_png,rou_bet_small_en_US_png,rou_bet_small_zh_CN_png,rou_bet_small_zh_TW_png,rou_bet_zero_en_US_png,rou_bet_zero_zh_CN_png,rou_bet_zero_zh_TW_png"
		},
		{
			"url": "assets/sheet/game_card_common_sheet-14cf1ae7c2.json",
			"type": "sheet",
			"name": "game_card_common_sheet_json",
			"subkeys": "Bg_BetZone_png,Btn_Bac1_Press_png,Btn_Bac1_black_png,Btn_Bac2_Press_png,Btn_Bac3_Press_png,Btn_Bac4_Press_png,Btn_Bac5_Press_png,Btn_Bac6_Press_png,Btn_Bac6_balck_png,Btn_Bac7_Press_png,PokerCard_png"
		},
		{
			"url": "assets/sheet/game_win3_sheet-7d5ec314fa.json",
			"type": "sheet",
			"name": "game_win3_sheet_json",
			"subkeys": "BgBet_WinThreeCards_png,win3_1_press_png,win3_2_press_png,win3_3_press_png,win3_4_press_png,win3_5_press_png,win3_6_press_png,win3_7_press_png,win3_bet1_en_US_L_png,win3_bet1_en_US_png,win3_bet1_zh_CN_L_png,win3_bet1_zh_CN_png,win3_bet1_zh_TW_L_png,win3_bet1_zh_TW_png,win3_bet2_en_US_L_png,win3_bet2_en_US_png,win3_bet2_zh_CN_L_png,win3_bet2_zh_CN_png,win3_bet2_zh_TW_L_png,win3_bet2_zh_TW_png,win3_bet3_en_US_L_png,win3_bet3_en_US_png,win3_bet3_zh_CN_L_png,win3_bet3_zh_CN_png,win3_bet3_zh_TW_L_png,win3_bet3_zh_TW_png,win3_bet4_en_US_L_png,win3_bet4_en_US_png,win3_bet4_zh_CN_L_png,win3_bet4_zh_CN_png,win3_bet4_zh_TW_L_png,win3_bet4_zh_TW_png,win3_bet5_en_US_L_png,win3_bet5_en_US_png,win3_bet5_zh_CN_L_png,win3_bet5_zh_CN_png,win3_bet5_zh_TW_L_png,win3_bet5_zh_TW_png,win3_bet6_en_US_L_png,win3_bet6_en_US_png,win3_bet6_zh_CN_L_png,win3_bet6_zh_CN_png,win3_bet6_zh_TW_L_png,win3_bet6_zh_TW_png,win3_bet7_en_US_L_png,win3_bet7_en_US_png,win3_bet7_zh_CN_L_png,win3_bet7_zh_CN_png,win3_bet7_zh_TW_L_png,win3_bet7_zh_TW_png"
		},
		{
			"url": "assets/sheet/game_bull_sheet-b45c2f76d1.json",
			"type": "sheet",
			"name": "game_bull_sheet_json",
			"subkeys": "Bg_BetZone_bull_png,Bg_OddBull_png,PokerCard_Bull_png,bull1_1_press_png,bull1_2_press_png,bull2_1_press_png,bull2_2_press_png,bull3_1_press_png,bull3_2_press_png,bull_bet1_1_en_US_L_png,bull_bet1_1_zh_CN_L_png,bull_bet1_1_zh_TW_L_png,bull_bet1_2_en_US_L_png,bull_bet1_2_zh_CN_L_png,bull_bet1_2_zh_TW_L_png,bull_bet1_en_US_png,bull_bet1_zh_CN_png,bull_bet1_zh_TW_png,bull_bet2_1_en_US_L_png,bull_bet2_1_zh_CN_L_png,bull_bet2_1_zh_TW_L_png,bull_bet2_2_en_US_L_png,bull_bet2_2_zh_CN_L_png,bull_bet2_2_zh_TW_L_png,bull_bet2_en_US_png,bull_bet2_zh_CN_png,bull_bet2_zh_TW_png,bull_bet3_1_en_US_L_png,bull_bet3_1_zh_CN_L_png,bull_bet3_1_zh_TW_L_png,bull_bet3_2_en_US_L_png,bull_bet3_2_zh_CN_L_png,bull_bet3_2_zh_TW_L_png,bull_player1_en_US_L_png,bull_player1_en_US_png,bull_player1_zh_CN_L_png,bull_player1_zh_CN_png,bull_player1_zh_TW_L_png,bull_player1_zh_TW_png,bull_player2_en_US_L_png,bull_player2_en_US_png,bull_player2_zh_CN_L_png,bull_player2_zh_CN_png,bull_player2_zh_TW_L_png,bull_player2_zh_TW_png,bull_player3_en_US_L_png,bull_player3_en_US_png,bull_player3_zh_CN_L_png,bull_player3_zh_CN_png,bull_player3_zh_TW_L_png,bull_player3_zh_TW_png"
		},
		{
			"url": "assets/sheet/road_sheet-56aa05bd20.json",
			"type": "sheet",
			"name": "road_sheet_json",
			"subkeys": "bull_road_b_5gong_en_US_png,bull_road_b_5gong_es_ES_png,bull_road_b_5gong_ja_JP_png,bull_road_b_5gong_ko_KR_png,bull_road_b_5gong_th_TH_png,bull_road_b_5gong_vi_VN_png,bull_road_b_5gong_zh_CN_png,bull_road_b_5gong_zh_TW_png,bull_road_b_bull_en_US_png,bull_road_b_bull_es_ES_png,bull_road_b_bull_ja_JP_png,bull_road_b_bull_ko_KR_png,bull_road_b_bull_th_TH_png,bull_road_b_bull_vi_VN_png,bull_road_b_bull_zh_CN_png,bull_road_b_bull_zh_TW_png,bull_road_b_bullbull_en_US_png,bull_road_b_bullbull_es_ES_png,bull_road_b_bullbull_ja_JP_png,bull_road_b_bullbull_ko_KR_png,bull_road_b_bullbull_th_TH_png,bull_road_b_bullbull_vi_VN_png,bull_road_b_bullbull_zh_CN_png,bull_road_b_bullbull_zh_TW_png,bull_road_b_nobull_en_US_png,bull_road_b_nobull_es_ES_png,bull_road_b_nobull_ja_JP_png,bull_road_b_nobull_ko_KR_png,bull_road_b_nobull_th_TH_png,bull_road_b_nobull_vi_VN_png,bull_road_b_nobull_zh_CN_png,bull_road_b_nobull_zh_TW_png,bull_road_b_title_en_US_png,bull_road_b_title_zh_CN_png,bull_road_b_title_zh_TW_png,bull_road_p1_title_en_US_png,bull_road_p1_title_zh_CN_png,bull_road_p1_title_zh_TW_png,bull_road_p2_title_en_US_png,bull_road_p2_title_zh_CN_png,bull_road_p2_title_zh_TW_png,bull_road_p3_title_en_US_png,bull_road_p3_title_zh_CN_png,bull_road_p3_title_zh_TW_png,bull_road_p_5gong_en_US_png,bull_road_p_5gong_es_ES_png,bull_road_p_5gong_ja_JP_png,bull_road_p_5gong_ko_KR_png,bull_road_p_5gong_th_TH_png,bull_road_p_5gong_vi_VN_png,bull_road_p_5gong_zh_CN_png,bull_road_p_5gong_zh_TW_png,bull_road_p_bull_en_US_png,bull_road_p_bull_es_ES_png,bull_road_p_bull_ja_JP_png,bull_road_p_bull_ko_KR_png,bull_road_p_bull_th_TH_png,bull_road_p_bull_vi_VN_png,bull_road_p_bull_zh_CN_png,bull_road_p_bull_zh_TW_png,bull_road_p_bullbull_en_US_png,bull_road_p_bullbull_es_ES_png,bull_road_p_bullbull_ja_JP_png,bull_road_p_bullbull_ko_KR_png,bull_road_p_bullbull_th_TH_png,bull_road_p_bullbull_vi_VN_png,bull_road_p_bullbull_zh_CN_png,bull_road_p_bullbull_zh_TW_png,bull_road_p_nobull_en_US_png,bull_road_p_nobull_es_ES_png,bull_road_p_nobull_ja_JP_png,bull_road_p_nobull_ko_KR_png,bull_road_p_nobull_th_TH_png,bull_road_p_nobull_vi_VN_png,bull_road_p_nobull_zh_CN_png,bull_road_p_nobull_zh_TW_png,bull_road_win_png,card_icon_club_png,card_icon_diamond_png,card_icon_heart_png,card_icon_spade_png,col-road-button1_en_US_png,col-road-button1_zh_CN_png,col-road-button1_zh_TW_png,col-road-button1f_en_US_png,col-road-button1f_zh_CN_png,col-road-button1f_zh_TW_png,col-road-button2_en_US_png,col-road-button2_zh_CN_png,col-road-button2_zh_TW_png,col-road-button2f_en_US_png,col-road-button2f_zh_CN_png,col-road-button2f_zh_TW_png,rb_road_win_b_png,rb_road_win_r_png,roadIconB0_en_US_png,roadIconB0_zh_CN_png,roadIconB0_zh_TW_png,roadIconB1_en_US_png,roadIconB1_zh_CN_png,roadIconB1_zh_TW_png,roadIconB2_en_US_png,roadIconB2_zh_CN_png,roadIconB2_zh_TW_png,roadIconB3_en_US_png,roadIconB3_zh_CN_png,roadIconB3_zh_TW_png,roadIconB5_en_US_png,roadIconB5_zh_CN_png,roadIconB5_zh_TW_png,roadIconBC0_png,roadIconBC1_png,roadIconBC2_png,roadIconBC3_png,roadIconBCT_png,roadIconBlack0_png,roadIconBlack_en_US_png,roadIconBlack_zh_CN_png,roadIconBlack_zh_TW_png,roadIconBlue1_png,roadIconBlue2_png,roadIconBlue3_png,roadIconBlue4_png,roadIconBlue5_png,roadIconBlue6_png,roadIconD_en_US_png,roadIconD_zh_CN_png,roadIconD_zh_TW_png,roadIconL1_png,roadIconL2_png,roadIconL3_png,roadIconP0_en_US_png,roadIconP0_zh_CN_png,roadIconP0_zh_TW_png,roadIconP1_en_US_png,roadIconP1_zh_CN_png,roadIconP1_zh_TW_png,roadIconP2_en_US_png,roadIconP2_zh_CN_png,roadIconP2_zh_TW_png,roadIconP3_en_US_png,roadIconP3_zh_CN_png,roadIconP3_zh_TW_png,roadIconP5_en_US_png,roadIconP5_zh_CN_png,roadIconP5_zh_TW_png,roadIconPC0_png,roadIconPC1_png,roadIconPC2_png,roadIconPC3_png,roadIconPCT_png,roadIconRed0_png,roadIconRed1_png,roadIconRed2_png,roadIconRed3_png,roadIconRed4_png,roadIconRed5_png,roadIconRed6_png,roadIconRed_en_US_png,roadIconRed_zh_CN_png,roadIconRed_zh_TW_png,roadIconSmallHC1_png,roadIconSmallHC2_png,roadIconSmallL1_png,roadIconSmallL2_png,roadIconSmallL3_png,roadIconSmallSC1_png,roadIconSmallSC2_png,roadIconT0_en_US_png,roadIconT0_zh_CN_png,roadIconT0_zh_TW_png,roadIconT1_en_US_png,roadIconT1_zh_CN_png,roadIconT1_zh_TW_png,roadIconT2_en_US_png,roadIconT2_zh_CN_png,roadIconT2_zh_TW_png,roadIconT3_en_US_png,roadIconT3_zh_CN_png,roadIconT3_zh_TW_png,roadIconT5_en_US_png,roadIconT5_zh_CN_png,roadIconT5_zh_TW_png,roadIconT_en_US_png,roadIconT_zh_CN_png,roadIconT_zh_TW_png,roadIcon_D_en_US_png,roadIcon_D_zh_CN_png,roadIcon_D_zh_TW_png,roadIcon_P_en_US_png,roadIcon_P_zh_CN_png,roadIcon_P_zh_TW_png,road_big_en_US_png,road_big_zh_CN_png,road_big_zh_TW_png,road_black_en_US_png,road_black_zh_CN_png,road_black_zh_TW_png,road_bule_ball_png,road_color_type_1_png,road_color_type_2_png,road_color_type_3_png,road_color_type_4_png,road_color_type_5_png,road_color_type_6_png,road_even_en_US_png,road_even_zh_CN_png,road_even_zh_TW_png,road_green_ball_png,road_odd_en_US_png,road_odd_zh_CN_png,road_odd_zh_TW_png,road_red_ball_png,road_red_en_US_png,road_red_zh_CN_png,road_red_zh_TW_png,road_small_en_US_png,road_small_zh_CN_png,road_small_zh_TW_png,road_title_banker_en_US_png,road_title_banker_zh_CN_png,road_title_banker_zh_TW_png,road_title_black_en_US_png,road_title_black_zh_CN_png,road_title_black_zh_TW_png,road_title_player_en_US_png,road_title_player_zh_CN_png,road_title_player_zh_TW_png,road_title_red_en_US_png,road_title_red_zh_CN_png,road_title_red_zh_TW_png,road_triple_en_US_png,road_triple_zh_CN_png,road_triple_zh_TW_png,road_zero_en_US_png,road_zero_zh_CN_png,road_zero_zh_TW_png,rou_road_0_png,rou_road_10_png,rou_road_11_png,rou_road_12_png,rou_road_13_png,rou_road_14_png,rou_road_15_png,rou_road_16_png,rou_road_17_png,rou_road_18_png,rou_road_19_png,rou_road_1_png,rou_road_20_png,rou_road_21_png,rou_road_22_png,rou_road_23_png,rou_road_24_png,rou_road_25_png,rou_road_26_png,rou_road_27_png,rou_road_28_png,rou_road_29_png,rou_road_2_png,rou_road_30_png,rou_road_31_png,rou_road_32_png,rou_road_33_png,rou_road_34_png,rou_road_35_png,rou_road_36_png,rou_road_3_png,rou_road_4_png,rou_road_5_png,rou_road_6_png,rou_road_7_png,rou_road_8_png,rou_road_9_png,rou_road_column1_en_US_png,rou_road_column1_es_ES_png,rou_road_column1_id_ID_png,rou_road_column1_ja_JP_png,rou_road_column1_ko_KR_png,rou_road_column1_th_TH_png,rou_road_column1_vi_VN_png,rou_road_column1_zh_CN_png,rou_road_column1_zh_TW_png,rou_road_column2_en_US_png,rou_road_column2_es_ES_png,rou_road_column2_id_ID_png,rou_road_column2_ja_JP_png,rou_road_column2_ko_KR_png,rou_road_column2_th_TH_png,rou_road_column2_vi_VN_png,rou_road_column2_zh_CN_png,rou_road_column2_zh_TW_png,rou_road_column3_en_US_png,rou_road_column3_es_ES_png,rou_road_column3_id_ID_png,rou_road_column3_ja_JP_png,rou_road_column3_ko_KR_png,rou_road_column3_th_TH_png,rou_road_column3_vi_VN_png,rou_road_column3_zh_CN_png,rou_road_column3_zh_TW_png,rou_road_dozen1_en_US_png,rou_road_dozen1_es_ES_png,rou_road_dozen1_id_ID_png,rou_road_dozen1_ja_JP_png,rou_road_dozen1_ko_KR_png,rou_road_dozen1_th_TH_png,rou_road_dozen1_vi_VN_png,rou_road_dozen1_zh_CN_png,rou_road_dozen1_zh_TW_png,rou_road_dozen2_en_US_png,rou_road_dozen2_es_ES_png,rou_road_dozen2_id_ID_png,rou_road_dozen2_ja_JP_png,rou_road_dozen2_ko_KR_png,rou_road_dozen2_th_TH_png,rou_road_dozen2_vi_VN_png,rou_road_dozen2_zh_CN_png,rou_road_dozen2_zh_TW_png,rou_road_dozen3_en_US_png,rou_road_dozen3_es_ES_png,rou_road_dozen3_id_ID_png,rou_road_dozen3_ja_JP_png,rou_road_dozen3_ko_KR_png,rou_road_dozen3_th_TH_png,rou_road_dozen3_vi_VN_png,rou_road_dozen3_zh_CN_png,rou_road_dozen3_zh_TW_png,rou_road_zero_en_US_png,rou_road_zero_es_ES_png,rou_road_zero_id_ID_png,rou_road_zero_ja_JP_png,rou_road_zero_ko_KR_png,rou_road_zero_th_TH_png,rou_road_zero_vi_VN_png,rou_road_zero_zh_CN_png,rou_road_zero_zh_TW_png,sibo_road_dice_1_png,sibo_road_dice_2_png,sibo_road_dice_3_png,sibo_road_dice_4_png,sibo_road_dice_5_png,sibo_road_dice_6_png,text_black_0_png,text_black_10_png,text_black_11_png,text_black_12_png,text_black_13_png,text_black_14_png,text_black_15_png,text_black_16_png,text_black_17_png,text_black_18_png,text_black_1_png,text_black_2_png,text_black_3_png,text_black_4_png,text_black_5_png,text_black_6_png,text_black_7_png,text_black_8_png,text_black_9_png,text_blue_0_png,text_blue_1_png,text_blue_2_png,text_blue_3_png,text_blue_4_png,text_blue_5_png,text_blue_6_png,text_blue_7_png,text_blue_8_png,text_blue_9_png,text_card_black10_png,text_card_black11_png,text_card_black12_png,text_card_black13_png,text_card_black1_png,text_card_black2_png,text_card_black3_png,text_card_black4_png,text_card_black5_png,text_card_black6_png,text_card_black7_png,text_card_black8_png,text_card_black9_png,text_card_blue10_png,text_card_blue11_png,text_card_blue12_png,text_card_blue13_png,text_card_blue1_png,text_card_blue2_png,text_card_blue3_png,text_card_blue4_png,text_card_blue5_png,text_card_blue6_png,text_card_blue7_png,text_card_blue8_png,text_card_blue9_png,text_card_red10_png,text_card_red11_png,text_card_red12_png,text_card_red13_png,text_card_red1_png,text_card_red2_png,text_card_red3_png,text_card_red4_png,text_card_red5_png,text_card_red6_png,text_card_red7_png,text_card_red8_png,text_card_red9_png,text_red_0_png,text_red_1_png,text_red_2_png,text_red_3_png,text_red_4_png,text_red_5_png,text_red_6_png,text_red_7_png,text_red_8_png,text_red_9_png,text_road_black_flushRB_en_US_png,text_road_black_flushRB_id_ID_png,text_road_black_flushRB_ja_JP_png,text_road_black_flushRB_ko_KR_png,text_road_black_flushRB_th_TH_png,text_road_black_flushRB_zh_CN_png,text_road_black_flushRB_zh_TW_png,text_road_black_highcard_en_US_png,text_road_black_highcard_es_ES_png,text_road_black_highcard_id_ID_png,text_road_black_highcard_ja_JP_png,text_road_black_highcard_ko_KR_png,text_road_black_highcard_th_TH_png,text_road_black_highcard_vi_VN_png,text_road_black_highcard_zh_CN_png,text_road_black_highcard_zh_TW_png,text_road_black_kind_en_US_png,text_road_black_kind_es_ES_png,text_road_black_kind_id_ID_png,text_road_black_kind_ja_JP_png,text_road_black_kind_ko_KR_png,text_road_black_kind_th_TH_png,text_road_black_kind_vi_VN_png,text_road_black_kind_zh_CN_png,text_road_black_kind_zh_TW_png,text_road_black_pair_en_US_png,text_road_black_pair_es_ES_png,text_road_black_pair_id_ID_png,text_road_black_pair_ja_JP_png,text_road_black_pair_ko_KR_png,text_road_black_pair_th_TH_png,text_road_black_pair_vi_VN_png,text_road_black_pair_zh_CN_png,text_road_black_pair_zh_TW_png,text_road_black_straight_en_US_png,text_road_black_straight_es_ES_png,text_road_black_straight_id_ID_png,text_road_black_straight_ja_JP_png,text_road_black_straight_ko_KR_png,text_road_black_straight_th_TH_png,text_road_black_straight_vi_VN_png,text_road_black_straight_zh_CN_png,text_road_black_straight_zh_TW_png,text_road_black_strflushRB_en_US_png,text_road_black_strflushRB_id_ID_png,text_road_black_strflushRB_ja_JP_png,text_road_black_strflushRB_ko_KR_png,text_road_black_strflushRB_th_TH_png,text_road_black_strflushRB_zh_CN_png,text_road_black_strflushRB_zh_TW_png,text_road_blue_235_en_US_png,text_road_blue_235_es_ES_png,text_road_blue_235_id_ID_png,text_road_blue_235_ja_JP_png,text_road_blue_235_ko_KR_png,text_road_blue_235_th_TH_png,text_road_blue_235_vi_VN_png,text_road_blue_235_zh_CN_png,text_road_blue_235_zh_TW_png,text_road_blue_flush_en_US_png,text_road_blue_flush_es_ES_png,text_road_blue_flush_id_ID_png,text_road_blue_flush_ja_JP_png,text_road_blue_flush_ko_KR_png,text_road_blue_flush_th_TH_png,text_road_blue_flush_vi_VN_png,text_road_blue_flush_zh_CN_png,text_road_blue_flush_zh_TW_png,text_road_blue_highcard_en_US_png,text_road_blue_highcard_es_ES_png,text_road_blue_highcard_id_ID_png,text_road_blue_highcard_ja_JP_png,text_road_blue_highcard_ko_KR_png,text_road_blue_highcard_th_TH_png,text_road_blue_highcard_vi_VN_png,text_road_blue_highcard_zh_CN_png,text_road_blue_highcard_zh_TW_png,text_road_blue_kind_en_US_png,text_road_blue_kind_es_ES_png,text_road_blue_kind_id_ID_png,text_road_blue_kind_ja_JP_png,text_road_blue_kind_ko_KR_png,text_road_blue_kind_th_TH_png,text_road_blue_kind_vi_VN_png,text_road_blue_kind_zh_CN_png,text_road_blue_kind_zh_TW_png,text_road_blue_pair_en_US_png,text_road_blue_pair_es_ES_png,text_road_blue_pair_id_ID_png,text_road_blue_pair_ja_JP_png,text_road_blue_pair_ko_KR_png,text_road_blue_pair_th_TH_png,text_road_blue_pair_vi_VN_png,text_road_blue_pair_zh_CN_png,text_road_blue_pair_zh_TW_png,text_road_blue_straight_en_US_png,text_road_blue_straight_es_ES_png,text_road_blue_straight_id_ID_png,text_road_blue_straight_ja_JP_png,text_road_blue_straight_ko_KR_png,text_road_blue_straight_th_TH_png,text_road_blue_straight_vi_VN_png,text_road_blue_straight_zh_CN_png,text_road_blue_straight_zh_TW_png,text_road_blue_strflush_en_US_png,text_road_blue_strflush_es_ES_png,text_road_blue_strflush_id_ID_png,text_road_blue_strflush_ja_JP_png,text_road_blue_strflush_ko_KR_png,text_road_blue_strflush_th_TH_png,text_road_blue_strflush_vi_VN_png,text_road_blue_strflush_zh_CN_png,text_road_blue_strflush_zh_TW_png,text_road_red_235_en_US_png,text_road_red_235_es_ES_png,text_road_red_235_id_ID_png,text_road_red_235_ja_JP_png,text_road_red_235_ko_KR_png,text_road_red_235_th_TH_png,text_road_red_235_vi_VN_png,text_road_red_235_zh_CN_png,text_road_red_235_zh_TW_png,text_road_red_flushRB_en_US_png,text_road_red_flushRB_id_ID_png,text_road_red_flushRB_ja_JP_png,text_road_red_flushRB_ko_KR_png,text_road_red_flushRB_th_TH_png,text_road_red_flushRB_zh_CN_png,text_road_red_flushRB_zh_TW_png,text_road_red_flush_en_US_png,text_road_red_flush_es_ES_png,text_road_red_flush_id_ID_png,text_road_red_flush_ja_JP_png,text_road_red_flush_ko_KR_png,text_road_red_flush_th_TH_png,text_road_red_flush_vi_VN_png,text_road_red_flush_zh_CN_png,text_road_red_flush_zh_TW_png,text_road_red_highcard_en_US_png,text_road_red_highcard_es_ES_png,text_road_red_highcard_id_ID_png,text_road_red_highcard_ja_JP_png,text_road_red_highcard_ko_KR_png,text_road_red_highcard_th_TH_png,text_road_red_highcard_vi_VN_png,text_road_red_highcard_zh_CN_png,text_road_red_highcard_zh_TW_png,text_road_red_kind_en_US_png,text_road_red_kind_es_ES_png,text_road_red_kind_id_ID_png,text_road_red_kind_ja_JP_png,text_road_red_kind_ko_KR_png,text_road_red_kind_th_TH_png,text_road_red_kind_vi_VN_png,text_road_red_kind_zh_CN_png,text_road_red_kind_zh_TW_png,text_road_red_pair_en_US_png,text_road_red_pair_es_ES_png,text_road_red_pair_id_ID_png,text_road_red_pair_ja_JP_png,text_road_red_pair_ko_KR_png,text_road_red_pair_th_TH_png,text_road_red_pair_vi_VN_png,text_road_red_pair_zh_CN_png,text_road_red_pair_zh_TW_png,text_road_red_straight_en_US_png,text_road_red_straight_es_ES_png,text_road_red_straight_id_ID_png,text_road_red_straight_ja_JP_png,text_road_red_straight_ko_KR_png,text_road_red_straight_th_TH_png,text_road_red_straight_vi_VN_png,text_road_red_straight_zh_CN_png,text_road_red_straight_zh_TW_png,text_road_red_strflushRB_en_US_png,text_road_red_strflushRB_id_ID_png,text_road_red_strflushRB_ja_JP_png,text_road_red_strflushRB_ko_KR_png,text_road_red_strflushRB_th_TH_png,text_road_red_strflushRB_zh_CN_png,text_road_red_strflushRB_zh_TW_png,text_road_red_strflush_en_US_png,text_road_red_strflush_es_ES_png,text_road_red_strflush_id_ID_png,text_road_red_strflush_ja_JP_png,text_road_red_strflush_ko_KR_png,text_road_red_strflush_th_TH_png,text_road_red_strflush_vi_VN_png,text_road_red_strflush_zh_CN_png,text_road_red_strflush_zh_TW_png,war_road_win_b_png,war_road_win_p_png,war_road_win_t_png,win3_road_d_title_en_US_png,win3_road_d_title_zh_CN_png,win3_road_d_title_zh_TW_png,win3_road_p_title_en_US_png,win3_road_p_title_zh_CN_png,win3_road_p_title_zh_TW_png,win3_road_win_d_png,win3_road_win_p_png,win3_road_win_t_png"
		},
		{
			"url": "assets/sheet/hall_sheet-81bb0ab9dc.json",
			"type": "sheet",
			"name": "hall_sheet_json",
			"subkeys": "Bg_BtnLogin_png,Bg_Head_Mi_png,Bg_Head_png,Bg_Language_png,Bg_OnlinePeople_png,GameSelect_BaccaratSp_png,GameSelect_Baccarat_png,GameSelect_Casino_png,GameSelect_DtBull_png,GameSelect_MutilPlay_png,GameSelect_RS_png,GameSelect_bar1_png,GameSelect_bar2_png,GameSelect_bar3_png,GameSelect_bar4_png,GameSelect_bar5_png,GameSelect_bar6_png,GameSelect_border_png,HallTitle_hall1_land_png,HallTitle_hall1_png,HallTitle_hall2_land_png,HallTitle_hall2_png,HallTitle_line_png,HallTitle_png,Hall_Info_bg_png,Hall_SystemMessage_png,Hall_bar_png,Head_Default_png,Icon_FreePlay_png,Icon_Hide_png,Icon_Show_png,Icon_UserLogin_png,Mask_Head_png,SimpleDesk_hall1_l_png,SimpleDesk_hall1_png,SimpleDesk_hall2_l_png,SimpleDesk_hall2_png,Spades_png,UI_LobbyTitle_png,UiBg_Info_Down_png,dot-01_png,dot-02_png,goldenBar_png,hall_desk_name_png,hall_desk_top_png,shadow_box_png"
		},
		{
			"url": "assets/sheet/table_sheet-81e07c341e.json",
			"type": "sheet",
			"name": "table_sheet_json",
			"subkeys": "table_1_png,table_2_png,table_3_png,table_girl1_png,table_girl2_png,table_rou_png,table_sibo_png"
		}
	]
}